<?xml version="1.0" encoding="UTF-8" standalone="no"?>
<svg
   width="6144"
   height="8704"
   viewBox="0 0 1625.6 2302.9333"
   version="1.1"
   id="svg8"
   inkscape:version="1.1.2 (0a00cf5339, 2022-02-04)"
   sodipodi:docname="free_trader.svg"
   xmlns:inkscape="http://www.inkscape.org/namespaces/inkscape"
   xmlns:sodipodi="http://sodipodi.sourceforge.net/DTD/sodipodi-0.dtd"
   xmlns:xlink="http://www.w3.org/1999/xlink"
   xmlns="http://www.w3.org/2000/svg"
   xmlns:svg="http://www.w3.org/2000/svg"
   xmlns:rdf="http://www.w3.org/1999/02/22-rdf-syntax-ns#"
   xmlns:cc="http://creativecommons.org/ns#"
   xmlns:dc="http://purl.org/dc/elements/1.1/">
  <defs
     id="defs2">
    <linearGradient
       inkscape:collect="always"
       id="linearGradient6263">
      <stop
         style="stop-color:#000000;stop-opacity:1;"
         offset="0"
         id="stop6259" />
      <stop
         style="stop-color:#c0c0c0;stop-opacity:0.99996638"
         offset="1"
         id="stop6261" />
    </linearGradient>
    <linearGradient
       inkscape:collect="always"
       id="linearGradient4620">
      <stop
         style="stop-color:#000000;stop-opacity:1"
         offset="0"
         id="stop4616" />
      <stop
         style="stop-color:#b3b3b3;stop-opacity:0;"
         offset="1"
         id="stop4618" />
    </linearGradient>
    <linearGradient
       inkscape:collect="always"
       xlink:href="#linearGradient4620"
       id="linearGradient4622"
       x1="440.26666"
       y1="2133.5999"
       x2="406.39999"
       y2="2133.5999"
       gradientUnits="userSpaceOnUse"
       gradientTransform="matrix(0.4999999,0,0,1,304.80004,33.866551)" />
    <linearGradient
       inkscape:collect="always"
       xlink:href="#linearGradient4620"
       id="linearGradient4929"
       gradientUnits="userSpaceOnUse"
       gradientTransform="matrix(0.4999999,0,0,1,-711.19996,-4301.0664)"
       x1="440.26666"
       y1="2133.5999"
       x2="406.39999"
       y2="2133.5999" />
    <linearGradient
       inkscape:collect="always"
       xlink:href="#linearGradient4620"
       id="linearGradient5285"
       gradientUnits="userSpaceOnUse"
       gradientTransform="matrix(0.4999999,0,0,1,304.80004,33.866551)"
       x1="440.26666"
       y1="2133.5999"
       x2="406.39999"
       y2="2133.5999" />
    <linearGradient
       inkscape:collect="always"
       xlink:href="#linearGradient4620"
       id="linearGradient5287"
       gradientUnits="userSpaceOnUse"
       gradientTransform="matrix(0.4999999,0,0,1,-711.19996,-4301.0664)"
       x1="440.26666"
       y1="2133.5999"
       x2="406.39999"
       y2="2133.5999" />
    <linearGradient
       inkscape:collect="always"
       xlink:href="#linearGradient4620"
       id="linearGradient5346"
       gradientUnits="userSpaceOnUse"
       gradientTransform="matrix(0.4999999,0,0,1,304.80004,33.866551)"
       x1="440.26666"
       y1="2133.5999"
       x2="406.39999"
       y2="2133.5999" />
    <linearGradient
       inkscape:collect="always"
       xlink:href="#linearGradient4620"
       id="linearGradient5348"
       gradientUnits="userSpaceOnUse"
       gradientTransform="matrix(0.4999999,0,0,1,-711.19996,-4301.0664)"
       x1="440.26666"
       y1="2133.5999"
       x2="406.39999"
       y2="2133.5999" />
    <linearGradient
       inkscape:collect="always"
       xlink:href="#linearGradient4620"
       id="linearGradient5407"
       gradientUnits="userSpaceOnUse"
       gradientTransform="matrix(0.4999999,0,0,1,304.80004,33.866551)"
       x1="440.26666"
       y1="2133.5999"
       x2="406.39999"
       y2="2133.5999" />
    <linearGradient
       inkscape:collect="always"
       xlink:href="#linearGradient4620"
       id="linearGradient5409"
       gradientUnits="userSpaceOnUse"
       gradientTransform="matrix(0.4999999,0,0,1,-711.19996,-4301.0664)"
       x1="440.26666"
       y1="2133.5999"
       x2="406.39999"
       y2="2133.5999" />
    <linearGradient
       inkscape:collect="always"
       xlink:href="#linearGradient4620"
       id="linearGradient5468"
       gradientUnits="userSpaceOnUse"
       gradientTransform="matrix(0.4999999,0,0,1,304.80004,33.866551)"
       x1="440.26666"
       y1="2133.5999"
       x2="406.39999"
       y2="2133.5999" />
    <linearGradient
       inkscape:collect="always"
       xlink:href="#linearGradient4620"
       id="linearGradient5470"
       gradientUnits="userSpaceOnUse"
       gradientTransform="matrix(0.4999999,0,0,1,-711.19996,-4301.0664)"
       x1="440.26666"
       y1="2133.5999"
       x2="406.39999"
       y2="2133.5999" />
    <linearGradient
       inkscape:collect="always"
       xlink:href="#linearGradient4620"
       id="linearGradient5529"
       gradientUnits="userSpaceOnUse"
       gradientTransform="matrix(0.4999999,0,0,1,304.80004,33.866551)"
       x1="440.26666"
       y1="2133.5999"
       x2="406.39999"
       y2="2133.5999" />
    <linearGradient
       inkscape:collect="always"
       xlink:href="#linearGradient4620"
       id="linearGradient5531"
       gradientUnits="userSpaceOnUse"
       gradientTransform="matrix(0.4999999,0,0,1,-711.19996,-4301.0664)"
       x1="440.26666"
       y1="2133.5999"
       x2="406.39999"
       y2="2133.5999" />
    <linearGradient
       inkscape:collect="always"
       xlink:href="#linearGradient6263"
       id="linearGradient6265"
       x1="626.53333"
       y1="2218.2666"
       x2="677.33331"
       y2="2218.2666"
       gradientUnits="userSpaceOnUse"
       gradientTransform="translate(-16.933334,33.866622)" />
    <linearGradient
       inkscape:collect="always"
       xlink:href="#linearGradient6263"
       id="linearGradient6480"
       gradientUnits="userSpaceOnUse"
       x1="626.53333"
       y1="2218.2666"
       x2="677.33331"
       y2="2218.2666"
       gradientTransform="matrix(-1,0,0,1,1337.7333,33.866597)" />
    <linearGradient
       inkscape:collect="always"
       xlink:href="#linearGradient6263"
       id="linearGradient6833"
       gradientUnits="userSpaceOnUse"
       gradientTransform="translate(-16.933334,33.866622)"
       x1="626.53333"
       y1="2218.2666"
       x2="677.33331"
       y2="2218.2666" />
    <linearGradient
       inkscape:collect="always"
       xlink:href="#linearGradient6263"
       id="linearGradient6835"
       gradientUnits="userSpaceOnUse"
       gradientTransform="matrix(-1,0,0,1,1337.7333,33.866597)"
       x1="626.53333"
       y1="2218.2666"
       x2="677.33331"
       y2="2218.2666" />
  </defs>
  <sodipodi:namedview
     id="base"
     pagecolor="#ffffff"
     bordercolor="#666666"
     borderopacity="1.0"
     inkscape:pageopacity="0"
     inkscape:pageshadow="2"
     inkscape:zoom="0.12374369"
     inkscape:cx="7584.2251"
     inkscape:cy="3907.2699"
     inkscape:document-units="px"
     inkscape:current-layer="layer3"
     inkscape:document-rotation="0"
     showgrid="true"
     units="px"
     inkscape:window-width="2560"
     inkscape:window-height="1343"
     inkscape:window-x="1200"
     inkscape:window-y="240"
     inkscape:window-maximized="1"
     inkscape:snap-grids="true"
     inkscape:pagecheckerboard="0"
     height="8704px"
     inkscape:snap-smooth-nodes="true">
    <inkscape:grid
       type="xygrid"
       id="grid833"
       units="px"
       empspacing="8"
       spacingy="4.2333333"
       spacingx="4.2333333" />
  </sodipodi:namedview>
  <metadata
     id="metadata5">
    <rdf:RDF>
      <cc:Work
         rdf:about="">
        <dc:format>image/svg+xml</dc:format>
        <dc:type
           rdf:resource="http://purl.org/dc/dcmitype/StillImage" />
      </cc:Work>
    </rdf:RDF>
  </metadata>
  <g
     inkscape:groupmode="layer"
     id="layer2"
     inkscape:label="Trace"
     style="display:none;opacity:0.571463">
    <path
       style="fill:#d40000;stroke:#000000;stroke-width:2.11667;stroke-linecap:butt;stroke-linejoin:miter;stroke-miterlimit:4;stroke-dasharray:none;stroke-opacity:1"
       d="m 457.20003,2201.3334 -50.8,-169.3333 -135.46666,-118.5334 -203.200007,-16.9333 v -609.6 H 254.00003 L 423.33336,1016.0001 694.26669,67.733389 c 89.0719,-52.5981 144.7201,-37.8888 237.0667,0 L 1202.2666,1016.0001 1371.6,1286.9334 h 186.2666 v 609.6 l -203.2,16.9333 -135.4666,118.5334 -50.8,169.3333 c -254.38511,47.9986 -452.37031,42.3423 -711.19997,0 z"
       id="path866"
       sodipodi:nodetypes="ccccccccccccccccc" />
    <path
       id="rect868"
       style="opacity:1;fill:#ff0000;stroke:#000000;stroke-width:2.11667;stroke-linecap:round;stroke-linejoin:bevel;stroke-miterlimit:4;stroke-dasharray:none;stop-color:#000000"
       d="m 558.80003,1930.4001 v -694.2667 l 118.53336,-220.1333 h 270.9333 L 1066.8,1236.1334 v 694.2667 h -16.9333 -474.13334 z"
       sodipodi:nodetypes="ccccccccc" />
    <g
       id="g921"
       transform="rotate(-90,1151.4667,1151.4667)">
      <rect
         style="opacity:1;fill:#808080;stroke:#000000;stroke-width:2.11667;stroke-linecap:round;stroke-linejoin:bevel;stroke-miterlimit:4;stroke-dasharray:none;stop-color:#000000"
         id="rect873"
         width="135.46667"
         height="33.866665"
         x="508"
         y="762"
         rx="33.866665"
         ry="33.866665" />
      <rect
         style="opacity:1;fill:#808080;stroke:#000000;stroke-width:2.11667;stroke-linecap:round;stroke-linejoin:bevel;stroke-miterlimit:4;stroke-dasharray:none;stop-color:#000000"
         id="rect873-6"
         width="135.46667"
         height="33.866665"
         x="508"
         y="829.73334"
         rx="33.866665"
         ry="33.866665" />
      <rect
         style="opacity:1;fill:#999999;stroke:#000000;stroke-width:2.11667;stroke-linecap:round;stroke-linejoin:bevel;stroke-miterlimit:4;stroke-dasharray:none;stop-color:#000000"
         id="rect871"
         width="169.33333"
         height="169.33333"
         x="406.39999"
         y="728.1333"
         rx="84.666664"
         ry="84.666664" />
    </g>
    <g
       id="g921-7"
       transform="rotate(-90,931.3334,931.33334)">
      <rect
         style="opacity:1;fill:#808080;stroke:#000000;stroke-width:2.11667;stroke-linecap:round;stroke-linejoin:bevel;stroke-miterlimit:4;stroke-dasharray:none;stop-color:#000000"
         id="rect873-5"
         width="135.46667"
         height="33.866665"
         x="508"
         y="762"
         rx="33.866665"
         ry="33.866665" />
      <rect
         style="opacity:1;fill:#808080;stroke:#000000;stroke-width:2.11667;stroke-linecap:round;stroke-linejoin:bevel;stroke-miterlimit:4;stroke-dasharray:none;stop-color:#000000"
         id="rect873-6-3"
         width="135.46667"
         height="33.866665"
         x="508"
         y="829.73334"
         rx="33.866665"
         ry="33.866665" />
      <rect
         style="opacity:1;fill:#999999;stroke:#000000;stroke-width:2.11667;stroke-linecap:round;stroke-linejoin:bevel;stroke-miterlimit:4;stroke-dasharray:none;stop-color:#000000"
         id="rect871-5"
         width="169.33333"
         height="169.33333"
         x="406.39999"
         y="728.1333"
         rx="84.666664"
         ry="84.666664" />
    </g>
    <path
       style="fill:none;stroke:#000000;stroke-width:4.23333;stroke-linecap:round;stroke-linejoin:round;stroke-miterlimit:4;stroke-dasharray:none;stroke-opacity:0.999962;stop-color:#000000"
       d="M 67.733332,1286.9333 H 1557.8666"
       id="path52" />
    <path
       style="fill:none;stroke:#000000;stroke-width:4.23333;stroke-linecap:round;stroke-linejoin:round;stroke-miterlimit:4;stroke-dasharray:none;stroke-opacity:0.999962;stop-color:#000000"
       d="M 406.39999,2031.9999 H 1219.2"
       id="path902" />
  </g>
  <g
     inkscape:groupmode="layer"
     id="layer3"
     inkscape:label="Trace 1"
     style="display:inline;opacity:1">
    <path
       style="fill:#be0000;fill-opacity:1;stroke:#000000;stroke-width:4.23333;stroke-linecap:round;stroke-linejoin:round;stroke-miterlimit:4;stroke-dasharray:none;stroke-opacity:0.999962;stop-color:#000000"
       d="M 338.66665,1185.3333 609.59998,338.66666 677.33331,67.733336 c 19.54204,-22.561838 39.6752,-44.027712 67.73334,-50.799999 h 135.46666 c 25.13916,5.85129 47.018,25.808606 67.73333,50.799999 L 1016,338.66666 1286.9333,1185.3333 Z"
       id="path3674"
       sodipodi:nodetypes="ccccccccc" />
    <path
       style="fill:#ff1900;fill-opacity:1;stroke:none;stroke-width:4.23333;stroke-linecap:round;stroke-linejoin:round;stroke-miterlimit:4;stroke-dasharray:none;stroke-opacity:0.999962;stop-color:#000000"
       d="m 1155.7,778.93333 -21.1667,-67.73334 H 491.06666 L 469.9,778.93333"
       id="path4259-7"
       sodipodi:nodetypes="cccc" />
    <path
       style="display:inline;fill:#ff1900;fill-opacity:1;stroke:none;stroke-width:4.23333;stroke-linecap:round;stroke-linejoin:round;stroke-miterlimit:4;stroke-dasharray:none;stroke-opacity:0.999962;stop-color:#000000"
       d="m 757.76666,914.39999 -3e-5,-67.73334 -309.0333,10e-6 L 427.56667,914.4"
       id="path4259-7-3"
       sodipodi:nodetypes="cccc" />
    <path
       style="display:inline;fill:#ff1900;fill-opacity:1;stroke:none;stroke-width:4.23333;stroke-linecap:round;stroke-linejoin:round;stroke-miterlimit:4;stroke-dasharray:none;stroke-opacity:0.999962;stop-color:#000000"
       d="m 867.83328,914.39998 3e-5,-67.73334 309.03329,10e-6 21.1667,67.73334"
       id="path4259-7-3-6"
       sodipodi:nodetypes="cccc" />
    <path
       style="display:inline;fill:#ff1900;fill-opacity:1;stroke:none;stroke-width:4.23333;stroke-linecap:round;stroke-linejoin:round;stroke-miterlimit:4;stroke-dasharray:none;stroke-opacity:0.999962;stop-color:#000000"
       d="m 757.76666,948.26666 v -16.93333 l -338.66666,0 -4.23334,16.93333"
       id="path4259-7-3-7"
       sodipodi:nodetypes="cccc" />
    <path
       style="display:inline;fill:#ff1900;fill-opacity:1;stroke:none;stroke-width:4.23333;stroke-linecap:round;stroke-linejoin:round;stroke-miterlimit:4;stroke-dasharray:none;stroke-opacity:0.999962;stop-color:#000000"
       d="M 867.83333,948.26666 V 931.33333 H 1206.5 l 4.2333,16.93333"
       id="path4259-7-3-6-5"
       sodipodi:nodetypes="cccc" />
    <path
       style="opacity:1;fill:#ff1900;fill-opacity:1;stroke:none;stroke-width:4.23333;stroke-linecap:round;stroke-linejoin:round;stroke-miterlimit:4;stroke-dasharray:none;stroke-opacity:0.999962;stop-color:#000000"
       d="m 643.46666,203.19999 h 338.66666 l -8.46666,-33.86666 H 651.93333 l -8.46667,33.86666"
       id="path4259"
       sodipodi:nodetypes="ccccc" />
    <path
       style="opacity:1;fill:#ff1900;fill-opacity:1;stroke:none;stroke-width:4.23333;stroke-linecap:round;stroke-linejoin:round;stroke-miterlimit:4;stroke-dasharray:none;stroke-opacity:0.999962;stop-color:#000000"
       d="m 660.39999,135.46666 h 304.8 L 948.26666,67.733333 H 677.33333 Z"
       id="path4257"
       sodipodi:nodetypes="ccccc" />
    <path
       style="fill:none;fill-opacity:1;stroke:#000000;stroke-width:4.23333;stroke-linecap:round;stroke-linejoin:round;stroke-miterlimit:4;stroke-dasharray:none;stroke-opacity:0.999962;stop-color:#000000"
       d="M 338.66666,1185.3333 609.59999,338.66666 677.33332,67.733344 c 20.6248,-23.983836 41.86833,-45.229996 67.73334,-50.799999 h 135.46666 c 27.88257,6.704801 48.13845,28.115145 67.73333,50.799999 L 1016,338.66666 1286.9333,1185.3333 Z"
       id="path3674-8"
       sodipodi:nodetypes="ccccccccc" />
    <g
       id="g6639"
       transform="translate(16.93333,-33.866578)">
      <path
         style="opacity:1;fill:url(#linearGradient6265);fill-opacity:1;stroke:none;stroke-width:4.23333;stroke-linecap:round;stroke-linejoin:round;stroke-miterlimit:4;stroke-dasharray:none;stroke-opacity:0.999962;stop-color:#000000"
         d="m 609.6,2218.2665 50.79999,10e-5 v 84.6666 H 592.66666 L 609.6,2269.0665 Z"
         id="path5642"
         sodipodi:nodetypes="cccccc" />
      <path
         style="fill:url(#linearGradient6480);fill-opacity:1;stroke:none;stroke-width:4.23333;stroke-linecap:round;stroke-linejoin:round;stroke-miterlimit:4;stroke-dasharray:none;stroke-opacity:0.999962;stop-color:#000000"
         d="m 711.19999,2218.2666 -50.79999,1e-4 v 84.6666 h 67.73333 l -16.93334,-33.8667 z"
         id="path5642-4"
         sodipodi:nodetypes="cccccc" />
      <path
         style="opacity:1;fill:none;fill-opacity:0.999966;stroke:#000000;stroke-width:4.23333;stroke-linecap:round;stroke-linejoin:round;stroke-miterlimit:4;stroke-dasharray:none;stroke-opacity:0.999962;stop-color:#000000"
         d="m 609.59999,2218.2666 h 101.6 v 50.8 l 16.93333,33.8667 H 592.66666 l 16.93333,-33.8667 z"
         id="path6518" />
    </g>
    <g
       id="g6639-52"
       transform="translate(287.86666,-33.866644)">
      <path
         style="opacity:1;fill:url(#linearGradient6833);fill-opacity:1;stroke:none;stroke-width:4.23333;stroke-linecap:round;stroke-linejoin:round;stroke-miterlimit:4;stroke-dasharray:none;stroke-opacity:0.999962;stop-color:#000000"
         d="m 609.6,2218.2665 50.79999,10e-5 v 84.6666 H 592.66666 L 609.6,2269.0665 Z"
         id="path5642-5"
         sodipodi:nodetypes="cccccc" />
      <path
         style="fill:url(#linearGradient6835);fill-opacity:1;stroke:none;stroke-width:4.23333;stroke-linecap:round;stroke-linejoin:round;stroke-miterlimit:4;stroke-dasharray:none;stroke-opacity:0.999962;stop-color:#000000"
         d="m 711.19999,2218.2666 -50.79999,1e-4 v 84.6666 h 67.73333 l -16.93334,-33.8667 z"
         id="path5642-4-4"
         sodipodi:nodetypes="cccccc" />
      <path
         style="opacity:1;fill:none;fill-opacity:0.999966;stroke:#000000;stroke-width:4.23333;stroke-linecap:round;stroke-linejoin:round;stroke-miterlimit:4;stroke-dasharray:none;stroke-opacity:0.999962;stop-color:#000000"
         d="m 609.59999,2218.2666 h 101.6 v 50.8 l 16.93333,33.8667 H 592.66666 l 16.93333,-33.8667 z"
         id="path6518-7" />
    </g>
    <g
       id="g11800">
      <rect
         style="opacity:1;fill:#483e37;fill-opacity:0.999966;stroke:#241f1c;stroke-width:4.23333;stroke-linecap:round;stroke-linejoin:round;stroke-miterlimit:4;stroke-dasharray:none;stroke-opacity:0.999962;stop-color:#000000"
         id="rect11590"
         width="46.566666"
         height="16.933332"
         x="1312.3334"
         y="1684.8667"
         rx="0.52916664"
         ry="0.52916664" />
      <rect
         style="opacity:1;fill:#917c6f;fill-opacity:0.999966;stroke:#241f1c;stroke-width:4.23333;stroke-linecap:round;stroke-linejoin:round;stroke-miterlimit:4;stroke-dasharray:none;stroke-opacity:0.999962;stop-color:#000000"
         id="rect11486"
         width="80.433304"
         height="76.200012"
         x="1286.9333"
         y="1617.1333"
         rx="0.52916664"
         ry="0.52916664" />
    </g>
    <g
       id="g11800-6"
       transform="matrix(-1,0,0,1,1625.6,-6.2228125e-5)">
      <rect
         style="opacity:1;fill:#483e37;fill-opacity:0.999966;stroke:#241f1c;stroke-width:4.23333;stroke-linecap:round;stroke-linejoin:round;stroke-miterlimit:4;stroke-dasharray:none;stroke-opacity:0.999962;stop-color:#000000"
         id="rect11590-8"
         width="46.566666"
         height="16.933332"
         x="1312.3334"
         y="1684.8667"
         rx="0.52916664"
         ry="0.52916664" />
      <rect
         style="opacity:1;fill:#917c6f;fill-opacity:0.999966;stroke:#241f1c;stroke-width:4.23333;stroke-linecap:round;stroke-linejoin:round;stroke-miterlimit:4;stroke-dasharray:none;stroke-opacity:0.999962;stop-color:#000000"
         id="rect11486-8"
         width="80.433304"
         height="76.200012"
         x="1286.9333"
         y="1617.1333"
         rx="0.52916664"
         ry="0.52916664" />
    </g>
    <path
       style="opacity:1;fill:#d40000;fill-opacity:0.998328;stroke:#000000;stroke-width:4.23333;stroke-linecap:round;stroke-linejoin:round;stroke-miterlimit:4;stroke-dasharray:none;stroke-opacity:0.999962;stop-color:#000000"
       d="M 203.19999,1168.4 H 1422.4 l 16.9333,16.9333 v 406.4 c -84.6667,84.6667 -152.4,135.4667 -254,220.1333 -73.5874,61.3229 -67.7333,254.0001 -118.5333,389.4667 H 558.79999 c -27.62218,-73.6592 -44.94588,-328.1438 -118.53333,-389.4667 -101.6,-84.6666 -169.33333,-135.4666 -254,-220.1333 v -406.4 z"
       id="path1050"
       sodipodi:nodetypes="ccccsccsccc" />
    <path
       style="opacity:1;fill:#ff2a2a;fill-opacity:1;stroke:#000000;stroke-width:4.23333;stroke-linecap:round;stroke-linejoin:round;stroke-miterlimit:4;stroke-dasharray:none;stroke-opacity:0.999962;stop-color:#000000"
       d="M 541.86666,1778 H 1083.7333 V 1185.3333 L 1100.6666,1168.4 V 1032.9333 H 524.93333 V 1168.4 l 16.93333,16.9333 z"
       id="path4261" />
    <path
       style="opacity:1;fill:#d40000;fill-opacity:1;stroke:#000000;stroke-width:4.23333;stroke-linecap:round;stroke-linejoin:round;stroke-miterlimit:4;stroke-dasharray:none;stroke-opacity:0.999962;stop-color:#000000"
       d="M 609.59999,1286.9333 V 1727.2 H 1016 V 1286.9333 H 609.59999 v 0"
       id="path4263"
       sodipodi:nodetypes="cccccc" />
    <path
       style="opacity:1;fill:#d40000;fill-opacity:1;stroke:#000000;stroke-width:4.23333;stroke-linecap:round;stroke-linejoin:round;stroke-miterlimit:4;stroke-dasharray:none;stroke-opacity:0.999962;stop-color:#000000"
       d="m 609.59999,1286.9333 84.66667,101.6 h 237.06666 l -10e-6,304.8 H 694.26665 l 10e-6,-304.8"
       id="path4265"
       sodipodi:nodetypes="cccccc" />
    <path
       style="opacity:1;fill:#d40000;fill-opacity:1;stroke:#000000;stroke-width:4.23333;stroke-linecap:round;stroke-linejoin:round;stroke-miterlimit:4;stroke-dasharray:none;stroke-opacity:0.999962;stop-color:#000000"
       d="m 1016,1286.9333 -84.66668,101.6"
       id="path4267" />
    <path
       style="opacity:1;fill:#d40000;fill-opacity:1;stroke:#000000;stroke-width:4.23333;stroke-linecap:round;stroke-linejoin:round;stroke-miterlimit:4;stroke-dasharray:none;stroke-opacity:0.999962;stop-color:#000000"
       d="m 609.59999,1727.2 84.66666,-33.8667"
       id="path4269"
       sodipodi:nodetypes="cc" />
    <path
       style="opacity:1;fill:#d40000;fill-opacity:1;stroke:#000000;stroke-width:4.23333;stroke-linecap:round;stroke-linejoin:round;stroke-miterlimit:4;stroke-dasharray:none;stroke-opacity:0.999962;stop-color:#000000"
       d="m 1016,1727.2 -84.66669,-33.8667"
       id="path4271"
       sodipodi:nodetypes="cc" />
    <rect
       style="opacity:1;fill:#aa0000;fill-opacity:1;stroke:#000000;stroke-width:4.23333;stroke-linecap:round;stroke-linejoin:round;stroke-miterlimit:4;stroke-dasharray:none;stroke-opacity:0.999962;stop-color:#000000"
       id="rect4295"
       width="33.866665"
       height="152.39999"
       x="795.86664"
       y="1930.4"
       rx="0.52916664"
       ry="0.52916664" />
    <rect
       style="opacity:1;fill:#aa0000;fill-opacity:1;stroke:#000000;stroke-width:4.23333;stroke-linecap:round;stroke-linejoin:round;stroke-miterlimit:4;stroke-dasharray:none;stroke-opacity:0.999962;stop-color:#000000"
       id="rect4297"
       width="118.53333"
       height="152.39999"
       x="863.59998"
       y="1930.4"
       rx="0.52916664"
       ry="0.52916664" />
    <rect
       style="opacity:1;fill:#aa0000;fill-opacity:1;stroke:#000000;stroke-width:4.23333;stroke-linecap:round;stroke-linejoin:round;stroke-miterlimit:4;stroke-dasharray:none;stroke-opacity:0.999962;stop-color:#000000"
       id="rect4299"
       width="118.53331"
       height="152.39999"
       x="643.46667"
       y="1930.4"
       rx="0.52916664"
       ry="0.52916664" />
    <g
       id="g5087"
       transform="translate(135.46666,-16.933376)">
      <rect
         style="opacity:1;fill:#b3b3b3;fill-opacity:1;stroke:#000000;stroke-width:4.23333;stroke-linecap:round;stroke-linejoin:round;stroke-miterlimit:4;stroke-dasharray:none;stroke-opacity:0.999962;stop-color:#000000"
         id="rect4303"
         width="33.866665"
         height="67.73333"
         x="491.06665"
         y="2133.6001"
         rx="0.52916664"
         ry="0.52916664" />
      <rect
         style="opacity:1;fill:url(#linearGradient4622);fill-opacity:1;stroke:none;stroke-width:4.23333;stroke-linecap:round;stroke-linejoin:round;stroke-miterlimit:4;stroke-dasharray:none;stroke-opacity:0.999962;stop-color:#000000"
         id="rect4562"
         width="16.933329"
         height="67.73333"
         x="508"
         y="2133.5999"
         rx="0.52916664"
         ry="0.52916664" />
      <rect
         style="fill:url(#linearGradient4929);fill-opacity:1;stroke:none;stroke-width:4.23333;stroke-linecap:round;stroke-linejoin:round;stroke-miterlimit:4;stroke-dasharray:none;stroke-opacity:0.999962;stop-color:#000000"
         id="rect4562-7"
         width="16.933329"
         height="67.73333"
         x="-508"
         y="-2201.3333"
         rx="0.52916664"
         ry="0.52916664"
         transform="scale(-1)" />
      <path
         style="opacity:1;fill:#d40000;fill-opacity:1;stroke:#000000;stroke-width:4.23333;stroke-linecap:round;stroke-linejoin:round;stroke-miterlimit:4;stroke-dasharray:none;stroke-opacity:0.999962;stop-color:#000000"
         d="m 491.06666,2150.5333 h 33.86666"
         id="path4348" />
      <path
         style="opacity:1;fill:#d40000;fill-opacity:1;stroke:#000000;stroke-width:4.23333;stroke-linecap:round;stroke-linejoin:round;stroke-miterlimit:4;stroke-dasharray:none;stroke-opacity:0.999962;stop-color:#000000"
         d="m 491.06666,2167.4667 h 33.86666"
         id="path4350" />
      <path
         style="opacity:1;fill:#d40000;fill-opacity:1;stroke:#000000;stroke-width:4.23333;stroke-linecap:round;stroke-linejoin:round;stroke-miterlimit:4;stroke-dasharray:none;stroke-opacity:0.999962;stop-color:#000000"
         d="m 491.06666,2184.4 h 33.86666"
         id="path4352" />
      <rect
         style="opacity:1;fill:none;fill-opacity:1;stroke:#000000;stroke-width:4.23333;stroke-linecap:round;stroke-linejoin:round;stroke-miterlimit:4;stroke-dasharray:none;stroke-opacity:0.999962;stop-color:#000000"
         id="rect4954"
         width="33.866665"
         height="67.73333"
         x="491.06665"
         y="2133.5999"
         rx="0.52916664"
         ry="0.52916664" />
    </g>
    <g
       id="g5087-5"
       transform="translate(203.19999,-16.933229)"
       style="opacity:1">
      <rect
         style="opacity:1;fill:#b3b3b3;fill-opacity:1;stroke:#000000;stroke-width:4.23333;stroke-linecap:round;stroke-linejoin:round;stroke-miterlimit:4;stroke-dasharray:none;stroke-opacity:0.999962;stop-color:#000000"
         id="rect4303-6"
         width="33.866665"
         height="67.73333"
         x="491.06665"
         y="2133.6001"
         rx="0.52916664"
         ry="0.52916664" />
      <rect
         style="opacity:1;fill:url(#linearGradient5285);fill-opacity:1;stroke:none;stroke-width:4.23333;stroke-linecap:round;stroke-linejoin:round;stroke-miterlimit:4;stroke-dasharray:none;stroke-opacity:0.999962;stop-color:#000000"
         id="rect4562-2"
         width="16.933329"
         height="67.73333"
         x="508"
         y="2133.5999"
         rx="0.52916664"
         ry="0.52916664" />
      <rect
         style="fill:url(#linearGradient5287);fill-opacity:1;stroke:none;stroke-width:4.23333;stroke-linecap:round;stroke-linejoin:round;stroke-miterlimit:4;stroke-dasharray:none;stroke-opacity:0.999962;stop-color:#000000"
         id="rect4562-7-9"
         width="16.933329"
         height="67.73333"
         x="-508"
         y="-2201.3333"
         rx="0.52916664"
         ry="0.52916664"
         transform="scale(-1)" />
      <path
         style="opacity:1;fill:#d40000;fill-opacity:1;stroke:#000000;stroke-width:4.23333;stroke-linecap:round;stroke-linejoin:round;stroke-miterlimit:4;stroke-dasharray:none;stroke-opacity:0.999962;stop-color:#000000"
         d="m 491.06666,2150.5333 h 33.86666"
         id="path4348-1" />
      <path
         style="opacity:1;fill:#d40000;fill-opacity:1;stroke:#000000;stroke-width:4.23333;stroke-linecap:round;stroke-linejoin:round;stroke-miterlimit:4;stroke-dasharray:none;stroke-opacity:0.999962;stop-color:#000000"
         d="m 491.06666,2167.4667 h 33.86666"
         id="path4350-2" />
      <path
         style="opacity:1;fill:#d40000;fill-opacity:1;stroke:#000000;stroke-width:4.23333;stroke-linecap:round;stroke-linejoin:round;stroke-miterlimit:4;stroke-dasharray:none;stroke-opacity:0.999962;stop-color:#000000"
         d="m 491.06666,2184.4 h 33.86666"
         id="path4352-7" />
      <rect
         style="opacity:1;fill:none;fill-opacity:1;stroke:#000000;stroke-width:4.23333;stroke-linecap:round;stroke-linejoin:round;stroke-miterlimit:4;stroke-dasharray:none;stroke-opacity:0.999962;stop-color:#000000"
         id="rect4954-0"
         width="33.866665"
         height="67.73333"
         x="491.06665"
         y="2133.5999"
         rx="0.52916664"
         ry="0.52916664" />
    </g>
    <g
       id="g5087-6"
       transform="translate(270.93332,-16.933409)"
       style="opacity:1">
      <rect
         style="opacity:1;fill:#b3b3b3;fill-opacity:1;stroke:#000000;stroke-width:4.23333;stroke-linecap:round;stroke-linejoin:round;stroke-miterlimit:4;stroke-dasharray:none;stroke-opacity:0.999962;stop-color:#000000"
         id="rect4303-0"
         width="33.866665"
         height="67.73333"
         x="491.06665"
         y="2133.6001"
         rx="0.52916664"
         ry="0.52916664" />
      <rect
         style="opacity:1;fill:url(#linearGradient5346);fill-opacity:1;stroke:none;stroke-width:4.23333;stroke-linecap:round;stroke-linejoin:round;stroke-miterlimit:4;stroke-dasharray:none;stroke-opacity:0.999962;stop-color:#000000"
         id="rect4562-6"
         width="16.933329"
         height="67.73333"
         x="508"
         y="2133.5999"
         rx="0.52916664"
         ry="0.52916664" />
      <rect
         style="fill:url(#linearGradient5348);fill-opacity:1;stroke:none;stroke-width:4.23333;stroke-linecap:round;stroke-linejoin:round;stroke-miterlimit:4;stroke-dasharray:none;stroke-opacity:0.999962;stop-color:#000000"
         id="rect4562-7-2"
         width="16.933329"
         height="67.73333"
         x="-508"
         y="-2201.3333"
         rx="0.52916664"
         ry="0.52916664"
         transform="scale(-1)" />
      <path
         style="opacity:1;fill:#d40000;fill-opacity:1;stroke:#000000;stroke-width:4.23333;stroke-linecap:round;stroke-linejoin:round;stroke-miterlimit:4;stroke-dasharray:none;stroke-opacity:0.999962;stop-color:#000000"
         d="m 491.06666,2150.5333 h 33.86666"
         id="path4348-6" />
      <path
         style="opacity:1;fill:#d40000;fill-opacity:1;stroke:#000000;stroke-width:4.23333;stroke-linecap:round;stroke-linejoin:round;stroke-miterlimit:4;stroke-dasharray:none;stroke-opacity:0.999962;stop-color:#000000"
         d="m 491.06666,2167.4667 h 33.86666"
         id="path4350-1" />
      <path
         style="opacity:1;fill:#d40000;fill-opacity:1;stroke:#000000;stroke-width:4.23333;stroke-linecap:round;stroke-linejoin:round;stroke-miterlimit:4;stroke-dasharray:none;stroke-opacity:0.999962;stop-color:#000000"
         d="m 491.06666,2184.4 h 33.86666"
         id="path4352-8" />
      <rect
         style="opacity:1;fill:none;fill-opacity:1;stroke:#000000;stroke-width:4.23333;stroke-linecap:round;stroke-linejoin:round;stroke-miterlimit:4;stroke-dasharray:none;stroke-opacity:0.999962;stop-color:#000000"
         id="rect4954-7"
         width="33.866665"
         height="67.73333"
         x="491.06665"
         y="2133.5999"
         rx="0.52916664"
         ry="0.52916664" />
    </g>
    <g
       id="g5087-0"
       transform="translate(338.66666,-16.933342)"
       style="opacity:1">
      <rect
         style="opacity:1;fill:#b3b3b3;fill-opacity:1;stroke:#000000;stroke-width:4.23333;stroke-linecap:round;stroke-linejoin:round;stroke-miterlimit:4;stroke-dasharray:none;stroke-opacity:0.999962;stop-color:#000000"
         id="rect4303-2"
         width="33.866665"
         height="67.73333"
         x="491.06665"
         y="2133.6001"
         rx="0.52916664"
         ry="0.52916664" />
      <rect
         style="opacity:1;fill:url(#linearGradient5407);fill-opacity:1;stroke:none;stroke-width:4.23333;stroke-linecap:round;stroke-linejoin:round;stroke-miterlimit:4;stroke-dasharray:none;stroke-opacity:0.999962;stop-color:#000000"
         id="rect4562-3"
         width="16.933329"
         height="67.73333"
         x="508"
         y="2133.5999"
         rx="0.52916664"
         ry="0.52916664" />
      <rect
         style="fill:url(#linearGradient5409);fill-opacity:1;stroke:none;stroke-width:4.23333;stroke-linecap:round;stroke-linejoin:round;stroke-miterlimit:4;stroke-dasharray:none;stroke-opacity:0.999962;stop-color:#000000"
         id="rect4562-7-7"
         width="16.933329"
         height="67.73333"
         x="-508"
         y="-2201.3333"
         rx="0.52916664"
         ry="0.52916664"
         transform="scale(-1)" />
      <path
         style="opacity:1;fill:#d40000;fill-opacity:1;stroke:#000000;stroke-width:4.23333;stroke-linecap:round;stroke-linejoin:round;stroke-miterlimit:4;stroke-dasharray:none;stroke-opacity:0.999962;stop-color:#000000"
         d="m 491.06666,2150.5333 h 33.86666"
         id="path4348-5" />
      <path
         style="opacity:1;fill:#d40000;fill-opacity:1;stroke:#000000;stroke-width:4.23333;stroke-linecap:round;stroke-linejoin:round;stroke-miterlimit:4;stroke-dasharray:none;stroke-opacity:0.999962;stop-color:#000000"
         d="m 491.06666,2167.4667 h 33.86666"
         id="path4350-9" />
      <path
         style="opacity:1;fill:#d40000;fill-opacity:1;stroke:#000000;stroke-width:4.23333;stroke-linecap:round;stroke-linejoin:round;stroke-miterlimit:4;stroke-dasharray:none;stroke-opacity:0.999962;stop-color:#000000"
         d="m 491.06666,2184.4 h 33.86666"
         id="path4352-2" />
      <rect
         style="opacity:1;fill:none;fill-opacity:1;stroke:#000000;stroke-width:4.23333;stroke-linecap:round;stroke-linejoin:round;stroke-miterlimit:4;stroke-dasharray:none;stroke-opacity:0.999962;stop-color:#000000"
         id="rect4954-2"
         width="33.866665"
         height="67.73333"
         x="491.06665"
         y="2133.5999"
         rx="0.52916664"
         ry="0.52916664" />
    </g>
    <g
       id="g5087-7"
       transform="translate(406.39998,-16.933229)"
       style="opacity:1">
      <rect
         style="opacity:1;fill:#b3b3b3;fill-opacity:1;stroke:#000000;stroke-width:4.23333;stroke-linecap:round;stroke-linejoin:round;stroke-miterlimit:4;stroke-dasharray:none;stroke-opacity:0.999962;stop-color:#000000"
         id="rect4303-3"
         width="33.866665"
         height="67.73333"
         x="491.06665"
         y="2133.6001"
         rx="0.52916664"
         ry="0.52916664" />
      <rect
         style="opacity:1;fill:url(#linearGradient5468);fill-opacity:1;stroke:none;stroke-width:4.23333;stroke-linecap:round;stroke-linejoin:round;stroke-miterlimit:4;stroke-dasharray:none;stroke-opacity:0.999962;stop-color:#000000"
         id="rect4562-61"
         width="16.933329"
         height="67.73333"
         x="508"
         y="2133.5999"
         rx="0.52916664"
         ry="0.52916664" />
      <rect
         style="fill:url(#linearGradient5470);fill-opacity:1;stroke:none;stroke-width:4.23333;stroke-linecap:round;stroke-linejoin:round;stroke-miterlimit:4;stroke-dasharray:none;stroke-opacity:0.999962;stop-color:#000000"
         id="rect4562-7-29"
         width="16.933329"
         height="67.73333"
         x="-508"
         y="-2201.3333"
         rx="0.52916664"
         ry="0.52916664"
         transform="scale(-1)" />
      <path
         style="opacity:1;fill:#d40000;fill-opacity:1;stroke:#000000;stroke-width:4.23333;stroke-linecap:round;stroke-linejoin:round;stroke-miterlimit:4;stroke-dasharray:none;stroke-opacity:0.999962;stop-color:#000000"
         d="m 491.06666,2150.5333 h 33.86666"
         id="path4348-3" />
      <path
         style="opacity:1;fill:#d40000;fill-opacity:1;stroke:#000000;stroke-width:4.23333;stroke-linecap:round;stroke-linejoin:round;stroke-miterlimit:4;stroke-dasharray:none;stroke-opacity:0.999962;stop-color:#000000"
         d="m 491.06666,2167.4667 h 33.86666"
         id="path4350-19" />
      <path
         style="opacity:1;fill:#d40000;fill-opacity:1;stroke:#000000;stroke-width:4.23333;stroke-linecap:round;stroke-linejoin:round;stroke-miterlimit:4;stroke-dasharray:none;stroke-opacity:0.999962;stop-color:#000000"
         d="m 491.06666,2184.4 h 33.86666"
         id="path4352-4" />
      <rect
         style="opacity:1;fill:none;fill-opacity:1;stroke:#000000;stroke-width:4.23333;stroke-linecap:round;stroke-linejoin:round;stroke-miterlimit:4;stroke-dasharray:none;stroke-opacity:0.999962;stop-color:#000000"
         id="rect4954-78"
         width="33.866665"
         height="67.73333"
         x="491.06665"
         y="2133.5999"
         rx="0.52916664"
         ry="0.52916664" />
    </g>
    <g
       id="g5087-03"
       transform="translate(474.13333,-16.933473)"
       style="opacity:1">
      <rect
         style="opacity:1;fill:#b3b3b3;fill-opacity:1;stroke:#000000;stroke-width:4.23333;stroke-linecap:round;stroke-linejoin:round;stroke-miterlimit:4;stroke-dasharray:none;stroke-opacity:0.999962;stop-color:#000000"
         id="rect4303-61"
         width="33.866665"
         height="67.73333"
         x="491.06665"
         y="2133.6001"
         rx="0.52916664"
         ry="0.52916664" />
      <rect
         style="opacity:1;fill:url(#linearGradient5529);fill-opacity:1;stroke:none;stroke-width:4.23333;stroke-linecap:round;stroke-linejoin:round;stroke-miterlimit:4;stroke-dasharray:none;stroke-opacity:0.999962;stop-color:#000000"
         id="rect4562-0"
         width="16.933329"
         height="67.73333"
         x="508"
         y="2133.5999"
         rx="0.52916664"
         ry="0.52916664" />
      <rect
         style="fill:url(#linearGradient5531);fill-opacity:1;stroke:none;stroke-width:4.23333;stroke-linecap:round;stroke-linejoin:round;stroke-miterlimit:4;stroke-dasharray:none;stroke-opacity:0.999962;stop-color:#000000"
         id="rect4562-7-6"
         width="16.933329"
         height="67.73333"
         x="-508"
         y="-2201.3333"
         rx="0.52916664"
         ry="0.52916664"
         transform="scale(-1)" />
      <path
         style="opacity:1;fill:#d40000;fill-opacity:1;stroke:#000000;stroke-width:4.23333;stroke-linecap:round;stroke-linejoin:round;stroke-miterlimit:4;stroke-dasharray:none;stroke-opacity:0.999962;stop-color:#000000"
         d="m 491.06666,2150.5333 h 33.86666"
         id="path4348-32" />
      <path
         style="opacity:1;fill:#d40000;fill-opacity:1;stroke:#000000;stroke-width:4.23333;stroke-linecap:round;stroke-linejoin:round;stroke-miterlimit:4;stroke-dasharray:none;stroke-opacity:0.999962;stop-color:#000000"
         d="m 491.06666,2167.4667 h 33.86666"
         id="path4350-0" />
      <path
         style="opacity:1;fill:#d40000;fill-opacity:1;stroke:#000000;stroke-width:4.23333;stroke-linecap:round;stroke-linejoin:round;stroke-miterlimit:4;stroke-dasharray:none;stroke-opacity:0.999962;stop-color:#000000"
         d="m 491.06666,2184.4 h 33.86666"
         id="path4352-6" />
      <rect
         style="opacity:1;fill:none;fill-opacity:1;stroke:#000000;stroke-width:4.23333;stroke-linecap:round;stroke-linejoin:round;stroke-miterlimit:4;stroke-dasharray:none;stroke-opacity:0.999962;stop-color:#000000"
         id="rect4954-1"
         width="33.866665"
         height="67.73333"
         x="491.06665"
         y="2133.5999"
         rx="0.52916664"
         ry="0.52916664" />
    </g>
    <rect
       style="opacity:1;fill:#ff2a2a;fill-opacity:0.999966;stroke:#000000;stroke-width:4.23333;stroke-linecap:round;stroke-linejoin:round;stroke-miterlimit:4;stroke-dasharray:none;stroke-opacity:0.999962;stop-color:#000000"
       id="rect7213"
       width="16.933332"
       height="16.933332"
       x="880.53333"
       y="1947.3333"
       rx="0.52916664"
       ry="0.52916664" />
    <rect
       style="opacity:1;fill:#ff2a2a;fill-opacity:0.999966;stroke:#000000;stroke-width:4.23333;stroke-linecap:round;stroke-linejoin:round;stroke-miterlimit:4;stroke-dasharray:none;stroke-opacity:0.999962;stop-color:#000000"
       id="rect7215"
       width="16.933332"
       height="16.933332"
       x="880.53333"
       y="1981.2"
       rx="0.52916664"
       ry="0.52916664" />
    <rect
       style="opacity:1;fill:#ff2a2a;fill-opacity:0.999966;stroke:#000000;stroke-width:4.23333;stroke-linecap:round;stroke-linejoin:round;stroke-miterlimit:4;stroke-dasharray:none;stroke-opacity:0.999962;stop-color:#000000"
       id="rect7217"
       width="16.933332"
       height="16.933332"
       x="880.53333"
       y="2015.0667"
       rx="0.52916664"
       ry="0.52916664" />
    <rect
       style="opacity:1;fill:#ff2a2a;fill-opacity:0.999966;stroke:#000000;stroke-width:4.23333;stroke-linecap:round;stroke-linejoin:round;stroke-miterlimit:4;stroke-dasharray:none;stroke-opacity:0.999962;stop-color:#000000"
       id="rect7219"
       width="16.933332"
       height="16.933332"
       x="880.53333"
       y="2048.9333"
       rx="0.52916664"
       ry="0.52916664" />
    <rect
       style="opacity:1;fill:#ff2a2a;fill-opacity:0.999966;stroke:#000000;stroke-width:4.23333;stroke-linecap:round;stroke-linejoin:round;stroke-miterlimit:4;stroke-dasharray:none;stroke-opacity:0.999962;stop-color:#000000"
       id="rect7221"
       width="16.933332"
       height="16.933332"
       x="914.39996"
       y="2048.9333"
       rx="0.52916664"
       ry="0.52916664" />
    <rect
       style="opacity:1;fill:#ff2a2a;fill-opacity:0.999966;stroke:#000000;stroke-width:4.23333;stroke-linecap:round;stroke-linejoin:round;stroke-miterlimit:4;stroke-dasharray:none;stroke-opacity:0.999962;stop-color:#000000"
       id="rect7223"
       width="16.933332"
       height="16.933332"
       x="914.39996"
       y="2015.0667"
       rx="0.52916664"
       ry="0.52916664" />
    <rect
       style="opacity:1;fill:#ff2a2a;fill-opacity:0.999966;stroke:#000000;stroke-width:4.23333;stroke-linecap:round;stroke-linejoin:round;stroke-miterlimit:4;stroke-dasharray:none;stroke-opacity:0.999962;stop-color:#000000"
       id="rect7225"
       width="16.933332"
       height="16.933332"
       x="914.39996"
       y="1981.2"
       rx="0.52916664"
       ry="0.52916664" />
    <rect
       style="opacity:1;fill:#ff2a2a;fill-opacity:0.999966;stroke:#000000;stroke-width:4.23333;stroke-linecap:round;stroke-linejoin:round;stroke-miterlimit:4;stroke-dasharray:none;stroke-opacity:0.999962;stop-color:#000000"
       id="rect7227"
       width="16.933332"
       height="16.933332"
       x="914.39996"
       y="1947.3333"
       rx="0.52916664"
       ry="0.52916664" />
    <rect
       style="opacity:1;fill:#ff2a2a;fill-opacity:0.999966;stroke:#000000;stroke-width:4.23333;stroke-linecap:round;stroke-linejoin:round;stroke-miterlimit:4;stroke-dasharray:none;stroke-opacity:0.999962;stop-color:#000000"
       id="rect7229"
       width="16.933332"
       height="16.933332"
       x="948.26666"
       y="1947.3333"
       rx="0.52916664"
       ry="0.52916664" />
    <rect
       style="opacity:1;fill:#ff2a2a;fill-opacity:0.999966;stroke:#000000;stroke-width:4.23333;stroke-linecap:round;stroke-linejoin:round;stroke-miterlimit:4;stroke-dasharray:none;stroke-opacity:0.999962;stop-color:#000000"
       id="rect7231"
       width="16.933332"
       height="16.933332"
       x="948.26666"
       y="1981.2"
       rx="0.52916664"
       ry="0.52916664" />
    <rect
       style="opacity:1;fill:#ff2a2a;fill-opacity:0.999966;stroke:#000000;stroke-width:4.23333;stroke-linecap:round;stroke-linejoin:round;stroke-miterlimit:4;stroke-dasharray:none;stroke-opacity:0.999962;stop-color:#000000"
       id="rect7233"
       width="16.933332"
       height="16.933332"
       x="948.26666"
       y="2015.0667"
       rx="0.52916664"
       ry="0.52916664" />
    <rect
       style="opacity:1;fill:#ff2a2a;fill-opacity:0.999966;stroke:#000000;stroke-width:4.23333;stroke-linecap:round;stroke-linejoin:round;stroke-miterlimit:4;stroke-dasharray:none;stroke-opacity:0.999962;stop-color:#000000"
       id="rect7235"
       width="16.933332"
       height="16.933332"
       x="948.26666"
       y="2048.9333"
       rx="0.52916664"
       ry="0.52916664" />
    <rect
       style="opacity:1;fill:#ff2a2a;fill-opacity:0.999966;stroke:#000000;stroke-width:4.23333;stroke-linecap:round;stroke-linejoin:round;stroke-miterlimit:4;stroke-dasharray:none;stroke-opacity:0.999962;stop-color:#000000"
       id="rect7255"
       width="16.933332"
       height="16.933332"
       x="728.1333"
       y="1947.3333"
       rx="0.52916664"
       ry="0.52916664" />
    <rect
       style="opacity:1;fill:#ff2a2a;fill-opacity:0.999966;stroke:#000000;stroke-width:4.23333;stroke-linecap:round;stroke-linejoin:round;stroke-miterlimit:4;stroke-dasharray:none;stroke-opacity:0.999962;stop-color:#000000"
       id="rect7257"
       width="16.933332"
       height="16.933332"
       x="694.26666"
       y="1947.3333"
       rx="0.52916664"
       ry="0.52916664" />
    <rect
       style="opacity:1;fill:#ff2a2a;fill-opacity:0.999966;stroke:#000000;stroke-width:4.23333;stroke-linecap:round;stroke-linejoin:round;stroke-miterlimit:4;stroke-dasharray:none;stroke-opacity:0.999962;stop-color:#000000"
       id="rect7259"
       width="16.933332"
       height="16.933332"
       x="660.39996"
       y="1947.3333"
       rx="0.52916664"
       ry="0.52916664" />
    <rect
       style="opacity:1;fill:#ff2a2a;fill-opacity:0.999966;stroke:#000000;stroke-width:4.23333;stroke-linecap:round;stroke-linejoin:round;stroke-miterlimit:4;stroke-dasharray:none;stroke-opacity:0.999962;stop-color:#000000"
       id="rect7265"
       width="16.933332"
       height="16.933332"
       x="660.39996"
       y="1981.2"
       rx="0.52916664"
       ry="0.52916664" />
    <rect
       style="opacity:1;fill:#ff2a2a;fill-opacity:0.999966;stroke:#000000;stroke-width:4.23333;stroke-linecap:round;stroke-linejoin:round;stroke-miterlimit:4;stroke-dasharray:none;stroke-opacity:0.999962;stop-color:#000000"
       id="rect7267"
       width="16.933332"
       height="16.933332"
       x="694.26666"
       y="1981.2"
       rx="0.52916664"
       ry="0.52916664" />
    <rect
       style="opacity:1;fill:#ff2a2a;fill-opacity:0.999966;stroke:#000000;stroke-width:4.23333;stroke-linecap:round;stroke-linejoin:round;stroke-miterlimit:4;stroke-dasharray:none;stroke-opacity:0.999962;stop-color:#000000"
       id="rect7269"
       width="16.933332"
       height="16.933332"
       x="728.1333"
       y="1981.2"
       rx="0.52916664"
       ry="0.52916664" />
    <rect
       style="opacity:1;fill:#ff2a2a;fill-opacity:0.999966;stroke:#000000;stroke-width:4.23333;stroke-linecap:round;stroke-linejoin:round;stroke-miterlimit:4;stroke-dasharray:none;stroke-opacity:0.999962;stop-color:#000000"
       id="rect7271"
       width="16.933332"
       height="16.933332"
       x="728.1333"
       y="2015.0667"
       rx="0.52916664"
       ry="0.52916664" />
    <rect
       style="opacity:1;fill:#ff2a2a;fill-opacity:0.999966;stroke:#000000;stroke-width:4.23333;stroke-linecap:round;stroke-linejoin:round;stroke-miterlimit:4;stroke-dasharray:none;stroke-opacity:0.999962;stop-color:#000000"
       id="rect7273"
       width="16.933332"
       height="16.933332"
       x="728.1333"
       y="2048.9333"
       rx="0.52916664"
       ry="0.52916664" />
    <rect
       style="opacity:1;fill:#ff2a2a;fill-opacity:0.999966;stroke:#000000;stroke-width:4.23333;stroke-linecap:round;stroke-linejoin:round;stroke-miterlimit:4;stroke-dasharray:none;stroke-opacity:0.999962;stop-color:#000000"
       id="rect7275"
       width="16.933332"
       height="16.933332"
       x="694.26666"
       y="2015.0667"
       rx="0.52916664"
       ry="0.52916664" />
    <rect
       style="opacity:1;fill:#ff2a2a;fill-opacity:0.999966;stroke:#000000;stroke-width:4.23333;stroke-linecap:round;stroke-linejoin:round;stroke-miterlimit:4;stroke-dasharray:none;stroke-opacity:0.999962;stop-color:#000000"
       id="rect7277"
       width="16.933332"
       height="16.933332"
       x="694.26666"
       y="2048.9333"
       rx="0.52916664"
       ry="0.52916664" />
    <rect
       style="opacity:1;fill:#ff2a2a;fill-opacity:0.999966;stroke:#000000;stroke-width:4.23333;stroke-linecap:round;stroke-linejoin:round;stroke-miterlimit:4;stroke-dasharray:none;stroke-opacity:0.999962;stop-color:#000000"
       id="rect7279"
       width="16.933332"
       height="16.933332"
       x="660.39996"
       y="2015.0667"
       rx="0.52916664"
       ry="0.52916664" />
    <rect
       style="opacity:1;fill:#ff2a2a;fill-opacity:0.999966;stroke:#000000;stroke-width:4.23333;stroke-linecap:round;stroke-linejoin:round;stroke-miterlimit:4;stroke-dasharray:none;stroke-opacity:0.999962;stop-color:#000000"
       id="rect7281"
       width="16.933332"
       height="16.933332"
       x="660.39996"
       y="2048.9333"
       rx="0.52916664"
       ry="0.52916664" />
    <rect
       style="opacity:1;fill:#aa0000;fill-opacity:0.999966;stroke:#000000;stroke-width:4.23333;stroke-linecap:round;stroke-linejoin:round;stroke-miterlimit:4;stroke-dasharray:none;stroke-opacity:0.999962;stop-color:#000000"
       id="rect7497"
       width="101.6"
       height="101.6"
       x="1168.4"
       y="1253.0667"
       rx="0.52916664"
       ry="0.52916664" />
    <rect
       style="opacity:1;fill:#aa0000;fill-opacity:0.999966;stroke:#000000;stroke-width:4.23333;stroke-linecap:round;stroke-linejoin:round;stroke-miterlimit:4;stroke-dasharray:none;stroke-opacity:0.999962;stop-color:#000000"
       id="rect7601"
       width="101.59995"
       height="101.59998"
       x="1168.4"
       y="1388.5333"
       rx="0.52916664"
       ry="0.52916664" />
    <rect
       style="opacity:1;fill:#aa0000;fill-opacity:0.999966;stroke:#000000;stroke-width:4.23333;stroke-linecap:round;stroke-linejoin:round;stroke-miterlimit:4;stroke-dasharray:none;stroke-opacity:0.999962;stop-color:#000000"
       id="rect7603"
       width="33.866665"
       height="101.6"
       x="1117.6"
       y="1253.0667"
       rx="0.52916664"
       ry="0.52916664" />
    <rect
       style="opacity:1;fill:#aa0000;fill-opacity:0.999966;stroke:#000000;stroke-width:4.23333;stroke-linecap:round;stroke-linejoin:round;stroke-miterlimit:4;stroke-dasharray:none;stroke-opacity:0.999962;stop-color:#000000"
       id="rect7605"
       width="33.866665"
       height="101.6"
       x="1117.6"
       y="1388.5333"
       rx="0.52916664"
       ry="0.52916664" />
    <rect
       style="fill:#aa0000;fill-opacity:0.999966;stroke:#000000;stroke-width:4.23333;stroke-linecap:round;stroke-linejoin:round;stroke-miterlimit:4;stroke-dasharray:none;stroke-opacity:0.999962;stop-color:#000000"
       id="rect7497-4"
       width="101.6"
       height="101.6"
       x="-457.19998"
       y="1253.0667"
       rx="0.52916664"
       ry="0.52916664"
       transform="scale(-1,1)" />
    <rect
       style="fill:#aa0000;fill-opacity:0.999966;stroke:#000000;stroke-width:4.23333;stroke-linecap:round;stroke-linejoin:round;stroke-miterlimit:4;stroke-dasharray:none;stroke-opacity:0.999962;stop-color:#000000"
       id="rect7601-4"
       width="101.59995"
       height="101.59998"
       x="-457.19998"
       y="1388.5333"
       rx="0.52916664"
       ry="0.52916664"
       transform="scale(-1,1)" />
    <rect
       style="fill:#aa0000;fill-opacity:0.999966;stroke:#000000;stroke-width:4.23333;stroke-linecap:round;stroke-linejoin:round;stroke-miterlimit:4;stroke-dasharray:none;stroke-opacity:0.999962;stop-color:#000000"
       id="rect7603-3"
       width="33.866665"
       height="101.6"
       x="-508.00003"
       y="1253.0667"
       rx="0.52916664"
       ry="0.52916664"
       transform="scale(-1,1)" />
    <rect
       style="fill:#aa0000;fill-opacity:0.999966;stroke:#000000;stroke-width:4.23333;stroke-linecap:round;stroke-linejoin:round;stroke-miterlimit:4;stroke-dasharray:none;stroke-opacity:0.999962;stop-color:#000000"
       id="rect7605-0"
       width="33.866665"
       height="101.6"
       x="-508.00003"
       y="1388.5333"
       rx="0.52916664"
       ry="0.52916664"
       transform="scale(-1,1)" />
    <path
       style="opacity:1;fill:#ff9955;fill-opacity:0.999966;stroke:#000000;stroke-width:4.23333;stroke-linecap:round;stroke-linejoin:round;stroke-miterlimit:4;stroke-dasharray:none;stroke-opacity:0.999962;stop-color:#000000"
       d="m 728.13332,1168.4 h 169.33334 l -16.93334,33.8666 H 745.06666 Z"
       id="path7773" />
    <path
       style="opacity:1;fill:#ff9955;fill-opacity:0.999966;stroke:#000000;stroke-width:4.23333;stroke-linecap:round;stroke-linejoin:round;stroke-miterlimit:4;stroke-dasharray:none;stroke-opacity:0.999962;stop-color:#000000"
       d="m 914.39999,1134.5333 16.93333,-33.8667 H 694.26665 l 16.93334,33.8667 z"
       id="path7775"
       sodipodi:nodetypes="ccccc" />
    <path
       style="opacity:1;fill:none;fill-opacity:0.999966;stroke:#000000;stroke-width:4.23333;stroke-linecap:round;stroke-linejoin:round;stroke-miterlimit:4;stroke-dasharray:none;stroke-opacity:0.999962;stop-color:#000000"
       d="M 524.93333,1032.9333 592.66665,1219.2 h 440.26665 l 67.7333,-186.2667"
       id="path8021"
       sodipodi:nodetypes="cccc" />
    <path
       style="opacity:1;fill:none;fill-opacity:0.999966;stroke:#000000;stroke-width:4.23333;stroke-linecap:round;stroke-linejoin:round;stroke-miterlimit:4;stroke-dasharray:none;stroke-opacity:0.999962;stop-color:#000000"
       d="m 592.66666,1219.2 -10e-6,524.9333 H 1032.9333 V 1219.2"
       id="path8336"
       sodipodi:nodetypes="cccc" />
    <path
       style="opacity:1;fill:none;fill-opacity:0.999966;stroke:#000000;stroke-width:4.23333;stroke-linecap:round;stroke-linejoin:round;stroke-miterlimit:4;stroke-dasharray:none;stroke-opacity:0.999962;stop-color:#000000"
       d="m 541.86666,1778 50.8,-33.8667"
       id="path8808" />
    <path
       style="opacity:1;fill:none;fill-opacity:0.999966;stroke:#000000;stroke-width:4.23333;stroke-linecap:round;stroke-linejoin:round;stroke-miterlimit:4;stroke-dasharray:none;stroke-opacity:0.999962;stop-color:#000000"
       d="m 1083.7333,1778 -50.8,-33.8667"
       id="path8810" />
    <path
       style="opacity:1;fill:#c87137;fill-opacity:0.999966;stroke:#000000;stroke-width:4.23333;stroke-linecap:round;stroke-linejoin:round;stroke-miterlimit:4;stroke-dasharray:none;stroke-opacity:0.999962;stop-color:#000000"
       d="m 660.39999,1303.8666 h 304.8 L 914.39998,1371.6 H 711.19999 l -50.8,-67.7334"
       id="path8812"
       sodipodi:nodetypes="ccccc" />
    <path
       style="opacity:1;fill:#aa0000;fill-opacity:0.999966;stroke:#800000;stroke-width:4.23333;stroke-linecap:round;stroke-linejoin:round;stroke-miterlimit:4;stroke-dasharray:none;stroke-opacity:0.999962;stop-color:#000000"
       d="m 732.36666,397.93333 h 160.86666 l 29.63334,304.79999 H 702.73332 l 29.63334,-304.79999"
       id="path11176" />
    <path
       style="opacity:1;fill:#d20000;fill-opacity:0.99996603;stroke:#800000;stroke-width:4.23333;stroke-linecap:round;stroke-linejoin:round;stroke-miterlimit:4;stroke-dasharray:none;stroke-opacity:0.999962;stop-color:#000000"
       d="m 723.89999,690.03332 h 177.8 L 880.53332,427.56666 H 745.06666 Z"
       id="path10986" />
    <path
       style="opacity:1;fill:none;fill-opacity:0.999966;stroke:#800000;stroke-width:4.23333;stroke-linecap:round;stroke-linejoin:round;stroke-miterlimit:4;stroke-dasharray:none;stroke-opacity:0.999962;stop-color:#000000"
       d="m 732.36666,397.93333 12.7,29.63333"
       id="path11178" />
    <path
       style="opacity:1;fill:none;fill-opacity:0.999966;stroke:#800000;stroke-width:4.23333;stroke-linecap:round;stroke-linejoin:round;stroke-miterlimit:4;stroke-dasharray:none;stroke-opacity:0.999962;stop-color:#000000"
       d="m 893.23332,397.93333 -12.7,29.63333"
       id="path11180" />
    <path
       style="opacity:1;fill:none;fill-opacity:0.999966;stroke:#800000;stroke-width:4.23333;stroke-linecap:round;stroke-linejoin:round;stroke-miterlimit:4;stroke-dasharray:none;stroke-opacity:0.999962;stop-color:#000000"
       d="m 702.73332,702.73332 21.16667,-12.7"
       id="path11182" />
    <path
       style="opacity:1;fill:none;fill-opacity:0.999966;stroke:#800000;stroke-width:4.23333;stroke-linecap:round;stroke-linejoin:round;stroke-miterlimit:4;stroke-dasharray:none;stroke-opacity:0.999962;stop-color:#000000"
       d="m 922.86666,702.73332 -21.16667,-12.7"
       id="path11184" />
    <rect
       style="fill:#800000;stroke:#000000;stroke-width:3.17499998;stroke-linecap:square;stroke-linejoin:round;stroke-opacity:0.996078;paint-order:markers fill stroke;stop-color:#000000;stroke-miterlimit:4;stroke-dasharray:none"
       id="rect211"
       width="33.866665"
       height="304.79999"
       x="1354.6666"
       y="1253.0667"
       rx="16.933332"
       ry="16.93334" />
    <rect
       style="display:inline;fill:#800000;stroke:#000000;stroke-width:3.17499998;stroke-linecap:square;stroke-linejoin:round;stroke-opacity:0.996078;paint-order:markers fill stroke;stop-color:#000000;stroke-miterlimit:4;stroke-dasharray:none"
       id="rect211-6"
       width="33.866665"
       height="304.79999"
       x="237.06667"
       y="1253.0668"
       rx="16.933332"
       ry="16.93334" />
    <g
       id="g2852"
       transform="rotate(90,929.2167,1439.3333)"
       style="display:inline">
      <rect
         style="fill:#333333;stroke:#000000;stroke-width:1.5875;stroke-linecap:square;stroke-linejoin:round;stroke-opacity:0.996078;paint-order:markers fill stroke;stop-color:#000000"
         id="rect195"
         width="198.96667"
         height="67.733322"
         x="304.79999"
         y="1524"
         rx="8.466671"
         ry="8.4666548" />
      <path
         id="rect263"
         style="fill:#aa0000;stroke:#000000;stroke-width:0.529167;stroke-linecap:square;stroke-linejoin:round;stroke-opacity:0.996078;paint-order:markers fill stroke;stop-color:#000000"
         d="M 309.03333,1525.0583 310.54129,1524 h 2.72537 v 67.7334 h -2.33873 l -1.8946,-1.0583 z"
         sodipodi:nodetypes="ccccccc" />
      <rect
         style="display:inline;fill:#aa0000;stroke:#000000;stroke-width:0.529167;stroke-linecap:square;stroke-linejoin:round;stroke-miterlimit:4;stroke-dasharray:none;stroke-opacity:0.996078;paint-order:markers fill stroke;stop-color:#000000"
         id="rect263-3"
         width="4.2333398"
         height="67.733414"
         x="317.5"
         y="1524"
         rx="0"
         ry="0" />
      <rect
         style="display:inline;fill:#aa0000;stroke:#000000;stroke-width:0.529167;stroke-linecap:square;stroke-linejoin:round;stroke-miterlimit:4;stroke-dasharray:none;stroke-opacity:0.996078;paint-order:markers fill stroke;stop-color:#000000"
         id="rect263-6"
         width="4.2333398"
         height="67.733414"
         x="325.96664"
         y="1524"
         rx="0"
         ry="0" />
      <rect
         style="display:inline;fill:#aa0000;stroke:#000000;stroke-width:0.529167;stroke-linecap:square;stroke-linejoin:round;stroke-miterlimit:4;stroke-dasharray:none;stroke-opacity:0.996078;paint-order:markers fill stroke;stop-color:#000000"
         id="rect263-7"
         width="4.2333398"
         height="67.733414"
         x="334.43332"
         y="1524"
         rx="0"
         ry="0" />
      <rect
         style="display:inline;fill:#aa0000;stroke:#000000;stroke-width:0.529167;stroke-linecap:square;stroke-linejoin:round;stroke-miterlimit:4;stroke-dasharray:none;stroke-opacity:0.996078;paint-order:markers fill stroke;stop-color:#000000"
         id="rect263-5"
         width="4.2333398"
         height="67.733414"
         x="342.89999"
         y="1524"
         rx="0"
         ry="0" />
      <rect
         style="display:inline;fill:#aa0000;stroke:#000000;stroke-width:0.529167;stroke-linecap:square;stroke-linejoin:round;stroke-miterlimit:4;stroke-dasharray:none;stroke-opacity:0.996078;paint-order:markers fill stroke;stop-color:#000000"
         id="rect263-2"
         width="4.2333398"
         height="67.733414"
         x="351.36667"
         y="1524"
         rx="0"
         ry="0" />
      <rect
         style="display:inline;fill:#aa0000;stroke:#000000;stroke-width:0.529167;stroke-linecap:square;stroke-linejoin:round;stroke-miterlimit:4;stroke-dasharray:none;stroke-opacity:0.996078;paint-order:markers fill stroke;stop-color:#000000"
         id="rect263-3-7"
         width="4.2333398"
         height="67.733414"
         x="359.83334"
         y="1524"
         rx="0"
         ry="0" />
      <rect
         style="display:inline;fill:#aa0000;stroke:#000000;stroke-width:0.529167;stroke-linecap:square;stroke-linejoin:round;stroke-miterlimit:4;stroke-dasharray:none;stroke-opacity:0.996078;paint-order:markers fill stroke;stop-color:#000000"
         id="rect263-6-0"
         width="4.2333398"
         height="67.733414"
         x="368.29999"
         y="1524"
         rx="0"
         ry="0" />
      <rect
         style="display:inline;fill:#aa0000;stroke:#000000;stroke-width:0.529167;stroke-linecap:square;stroke-linejoin:round;stroke-miterlimit:4;stroke-dasharray:none;stroke-opacity:0.996078;paint-order:markers fill stroke;stop-color:#000000"
         id="rect263-7-9"
         width="4.2333398"
         height="67.733414"
         x="376.76666"
         y="1524"
         rx="0"
         ry="0" />
      <rect
         style="display:inline;fill:#aa0000;stroke:#000000;stroke-width:0.529167;stroke-linecap:square;stroke-linejoin:round;stroke-miterlimit:4;stroke-dasharray:none;stroke-opacity:0.996078;paint-order:markers fill stroke;stop-color:#000000"
         id="rect263-5-3"
         width="4.2333398"
         height="67.733414"
         x="385.23334"
         y="1524"
         rx="0"
         ry="0" />
      <rect
         style="display:inline;fill:#aa0000;stroke:#000000;stroke-width:0.529167;stroke-linecap:square;stroke-linejoin:round;stroke-miterlimit:4;stroke-dasharray:none;stroke-opacity:0.996078;paint-order:markers fill stroke;stop-color:#000000"
         id="rect263-60"
         width="4.2333398"
         height="67.733414"
         x="393.69998"
         y="1524"
         rx="0"
         ry="0" />
      <rect
         style="display:inline;fill:#aa0000;stroke:#000000;stroke-width:0.529167;stroke-linecap:square;stroke-linejoin:round;stroke-miterlimit:4;stroke-dasharray:none;stroke-opacity:0.996078;paint-order:markers fill stroke;stop-color:#000000"
         id="rect263-3-6"
         width="4.2333398"
         height="67.733414"
         x="402.16666"
         y="1524"
         rx="0"
         ry="0" />
      <rect
         style="display:inline;fill:#aa0000;stroke:#000000;stroke-width:0.529167;stroke-linecap:square;stroke-linejoin:round;stroke-miterlimit:4;stroke-dasharray:none;stroke-opacity:0.996078;paint-order:markers fill stroke;stop-color:#000000"
         id="rect263-6-2"
         width="4.2333398"
         height="67.733414"
         x="410.6333"
         y="1524"
         rx="0"
         ry="0" />
      <rect
         style="display:inline;fill:#aa0000;stroke:#000000;stroke-width:0.529167;stroke-linecap:square;stroke-linejoin:round;stroke-miterlimit:4;stroke-dasharray:none;stroke-opacity:0.996078;paint-order:markers fill stroke;stop-color:#000000"
         id="rect263-7-6"
         width="4.2333398"
         height="67.733414"
         x="419.09998"
         y="1524"
         rx="0"
         ry="0" />
      <rect
         style="display:inline;fill:#aa0000;stroke:#000000;stroke-width:0.529167;stroke-linecap:square;stroke-linejoin:round;stroke-miterlimit:4;stroke-dasharray:none;stroke-opacity:0.996078;paint-order:markers fill stroke;stop-color:#000000"
         id="rect263-5-1"
         width="4.2333398"
         height="67.733414"
         x="427.56665"
         y="1524"
         rx="0"
         ry="0" />
      <rect
         style="display:inline;fill:#aa0000;stroke:#000000;stroke-width:0.529167;stroke-linecap:square;stroke-linejoin:round;stroke-miterlimit:4;stroke-dasharray:none;stroke-opacity:0.996078;paint-order:markers fill stroke;stop-color:#000000"
         id="rect263-8"
         width="4.2333398"
         height="67.733414"
         x="436.03333"
         y="1524"
         rx="0"
         ry="0" />
      <rect
         style="display:inline;fill:#aa0000;stroke:#000000;stroke-width:0.529167;stroke-linecap:square;stroke-linejoin:round;stroke-miterlimit:4;stroke-dasharray:none;stroke-opacity:0.996078;paint-order:markers fill stroke;stop-color:#000000"
         id="rect263-3-79"
         width="4.2333398"
         height="67.733414"
         x="444.5"
         y="1524"
         rx="0"
         ry="0" />
      <rect
         style="display:inline;fill:#aa0000;stroke:#000000;stroke-width:0.529167;stroke-linecap:square;stroke-linejoin:round;stroke-miterlimit:4;stroke-dasharray:none;stroke-opacity:0.996078;paint-order:markers fill stroke;stop-color:#000000"
         id="rect263-6-20"
         width="4.2333398"
         height="67.733414"
         x="452.96664"
         y="1524"
         rx="0"
         ry="0" />
      <rect
         style="display:inline;fill:#aa0000;stroke:#000000;stroke-width:0.529167;stroke-linecap:square;stroke-linejoin:round;stroke-miterlimit:4;stroke-dasharray:none;stroke-opacity:0.996078;paint-order:markers fill stroke;stop-color:#000000"
         id="rect263-7-2"
         width="4.2333398"
         height="67.733414"
         x="461.43332"
         y="1524"
         rx="0"
         ry="0" />
      <rect
         style="display:inline;fill:#aa0000;stroke:#000000;stroke-width:0.529167;stroke-linecap:square;stroke-linejoin:round;stroke-miterlimit:4;stroke-dasharray:none;stroke-opacity:0.996078;paint-order:markers fill stroke;stop-color:#000000"
         id="rect263-5-37"
         width="4.2333398"
         height="67.733414"
         x="469.89999"
         y="1524"
         rx="0"
         ry="0" />
      <rect
         style="display:inline;fill:#aa0000;stroke:#000000;stroke-width:0.529167;stroke-linecap:square;stroke-linejoin:round;stroke-miterlimit:4;stroke-dasharray:none;stroke-opacity:0.996078;paint-order:markers fill stroke;stop-color:#000000"
         id="rect263-59"
         width="4.2333398"
         height="67.733414"
         x="478.36667"
         y="1524"
         rx="0"
         ry="0" />
      <rect
         style="display:inline;fill:#aa0000;stroke:#000000;stroke-width:0.529167;stroke-linecap:square;stroke-linejoin:round;stroke-miterlimit:4;stroke-dasharray:none;stroke-opacity:0.996078;paint-order:markers fill stroke;stop-color:#000000"
         id="rect263-3-2"
         width="4.2333398"
         height="67.733414"
         x="486.83334"
         y="1524"
         rx="0"
         ry="0" />
      <path
         id="rect263-6-28"
         style="display:inline;fill:#aa0000;stroke:#000000;stroke-width:0.529167;stroke-linecap:square;stroke-linejoin:round;stroke-opacity:0.996078;paint-order:markers fill stroke;stop-color:#000000"
         d="m 495.29999,1524 h 2.34284 l 1.8905,1.0583 v 65.6168 l -1.8063,1.0583 h -2.42704 z"
         sodipodi:nodetypes="ccccccc" />
      <rect
         style="display:inline;fill:none;stroke:#000000;stroke-width:1.5875;stroke-linecap:square;stroke-linejoin:round;stroke-opacity:0.996078;paint-order:markers fill stroke;stop-color:#000000"
         id="rect195-1"
         width="198.96667"
         height="67.733322"
         x="304.79999"
         y="1524"
         rx="8.466671"
         ry="8.4666548" />
    </g>
    <path
       style="fill:#800000;stroke:#000000;stroke-width:3.175;stroke-linecap:square;stroke-linejoin:round;stroke-miterlimit:4;stroke-dasharray:none;stroke-opacity:0.996078;paint-order:markers fill stroke;stop-color:#000000"
       d="m 507.99999,1557.8666 h -101.6 l 101.6,101.6 v -101.6"
       id="path1315" />
    <path
       style="display:inline;fill:#800000;stroke:#000000;stroke-width:3.175;stroke-linecap:square;stroke-linejoin:round;stroke-miterlimit:4;stroke-dasharray:none;stroke-opacity:0.996078;paint-order:markers fill stroke;stop-color:#000000"
       d="m 1117.6,1557.8667 h 101.6 l -101.6,101.6 v -101.6"
       id="path1315-7" />
    <g
       id="g2395">
      <g
         id="g1902">
        <rect
           style="fill:#333333;stroke:#000000;stroke-width:3.175;stroke-linecap:square;stroke-linejoin:round;stroke-miterlimit:4;stroke-dasharray:none;stroke-opacity:0.996078;paint-order:markers fill stroke;stop-color:#000000"
           id="rect1456"
           width="25.4"
           height="25.4"
           x="846.66669"
           y="1828.7999"
           rx="16.933332"
           ry="16.933332" />
        <rect
           style="display:inline;fill:#4d4d4d;stroke:#000000;stroke-width:1.05834;stroke-linecap:square;stroke-linejoin:round;stroke-miterlimit:4;stroke-dasharray:none;stroke-opacity:0.996078;paint-order:markers fill stroke;stop-color:#000000"
           id="rect1456-56-2"
           width="8.4666882"
           height="8.4666882"
           x="855.1333"
           y="1837.2666"
           rx="5.6444588"
           ry="5.6444588" />
      </g>
      <g
         id="g1902-9"
         style="display:inline"
         transform="translate(33.866692,5.06375e-5)">
        <rect
           style="fill:#333333;stroke:#000000;stroke-width:3.175;stroke-linecap:square;stroke-linejoin:round;stroke-miterlimit:4;stroke-dasharray:none;stroke-opacity:0.996078;paint-order:markers fill stroke;stop-color:#000000"
           id="rect1456-1"
           width="25.4"
           height="25.4"
           x="846.66669"
           y="1828.7999"
           rx="16.933332"
           ry="16.933332" />
        <rect
           style="display:inline;fill:#4d4d4d;stroke:#000000;stroke-width:1.05834;stroke-linecap:square;stroke-linejoin:round;stroke-miterlimit:4;stroke-dasharray:none;stroke-opacity:0.996078;paint-order:markers fill stroke;stop-color:#000000"
           id="rect1456-56-2-2"
           width="8.4666882"
           height="8.4666882"
           x="855.1333"
           y="1837.2666"
           rx="5.6444588"
           ry="5.6444588" />
      </g>
      <g
         id="g1902-7"
         style="display:inline"
         transform="translate(67.733359,5.06375e-5)">
        <rect
           style="fill:#333333;stroke:#000000;stroke-width:3.175;stroke-linecap:square;stroke-linejoin:round;stroke-miterlimit:4;stroke-dasharray:none;stroke-opacity:0.996078;paint-order:markers fill stroke;stop-color:#000000"
           id="rect1456-0"
           width="25.4"
           height="25.4"
           x="846.66669"
           y="1828.7999"
           rx="16.933332"
           ry="16.933332" />
        <rect
           style="display:inline;fill:#4d4d4d;stroke:#000000;stroke-width:1.05834;stroke-linecap:square;stroke-linejoin:round;stroke-miterlimit:4;stroke-dasharray:none;stroke-opacity:0.996078;paint-order:markers fill stroke;stop-color:#000000"
           id="rect1456-56-2-9"
           width="8.4666882"
           height="8.4666882"
           x="855.1333"
           y="1837.2666"
           rx="5.6444588"
           ry="5.6444588" />
      </g>
      <g
         id="g1902-3"
         style="display:inline"
         transform="translate(101.60003,5.06375e-5)">
        <rect
           style="fill:#333333;stroke:#000000;stroke-width:3.175;stroke-linecap:square;stroke-linejoin:round;stroke-miterlimit:4;stroke-dasharray:none;stroke-opacity:0.996078;paint-order:markers fill stroke;stop-color:#000000"
           id="rect1456-6"
           width="25.4"
           height="25.4"
           x="846.66669"
           y="1828.7999"
           rx="16.933332"
           ry="16.933332" />
        <rect
           style="display:inline;fill:#4d4d4d;stroke:#000000;stroke-width:1.05834;stroke-linecap:square;stroke-linejoin:round;stroke-miterlimit:4;stroke-dasharray:none;stroke-opacity:0.996078;paint-order:markers fill stroke;stop-color:#000000"
           id="rect1456-56-2-0"
           width="8.4666882"
           height="8.4666882"
           x="855.1333"
           y="1837.2666"
           rx="5.6444588"
           ry="5.6444588" />
      </g>
      <g
         id="g1902-6"
         style="display:inline"
         transform="translate(135.46669,5.06375e-5)">
        <rect
           style="fill:#333333;stroke:#000000;stroke-width:3.175;stroke-linecap:square;stroke-linejoin:round;stroke-miterlimit:4;stroke-dasharray:none;stroke-opacity:0.996078;paint-order:markers fill stroke;stop-color:#000000"
           id="rect1456-2"
           width="25.4"
           height="25.4"
           x="846.66669"
           y="1828.7999"
           rx="16.933332"
           ry="16.933332" />
        <rect
           style="display:inline;fill:#4d4d4d;stroke:#000000;stroke-width:1.05834;stroke-linecap:square;stroke-linejoin:round;stroke-miterlimit:4;stroke-dasharray:none;stroke-opacity:0.996078;paint-order:markers fill stroke;stop-color:#000000"
           id="rect1456-56-2-6"
           width="8.4666882"
           height="8.4666882"
           x="855.1333"
           y="1837.2666"
           rx="5.6444588"
           ry="5.6444588" />
      </g>
      <g
         id="g1902-1"
         style="display:inline"
         transform="translate(16.933359,29.633384)">
        <rect
           style="fill:#333333;stroke:#000000;stroke-width:3.175;stroke-linecap:square;stroke-linejoin:round;stroke-miterlimit:4;stroke-dasharray:none;stroke-opacity:0.996078;paint-order:markers fill stroke;stop-color:#000000"
           id="rect1456-8"
           width="25.4"
           height="25.4"
           x="846.66669"
           y="1828.7999"
           rx="16.933332"
           ry="16.933332" />
        <rect
           style="display:inline;fill:#4d4d4d;stroke:#000000;stroke-width:1.05834;stroke-linecap:square;stroke-linejoin:round;stroke-miterlimit:4;stroke-dasharray:none;stroke-opacity:0.996078;paint-order:markers fill stroke;stop-color:#000000"
           id="rect1456-56-2-7"
           width="8.4666882"
           height="8.4666882"
           x="855.1333"
           y="1837.2666"
           rx="5.6444588"
           ry="5.6444588" />
      </g>
      <g
         id="g1902-92"
         style="display:inline"
         transform="translate(50.800025,29.633384)">
        <rect
           style="fill:#333333;stroke:#000000;stroke-width:3.175;stroke-linecap:square;stroke-linejoin:round;stroke-miterlimit:4;stroke-dasharray:none;stroke-opacity:0.996078;paint-order:markers fill stroke;stop-color:#000000"
           id="rect1456-02"
           width="25.4"
           height="25.4"
           x="846.66669"
           y="1828.7999"
           rx="16.933332"
           ry="16.933332" />
        <rect
           style="display:inline;fill:#4d4d4d;stroke:#000000;stroke-width:1.05834;stroke-linecap:square;stroke-linejoin:round;stroke-miterlimit:4;stroke-dasharray:none;stroke-opacity:0.996078;paint-order:markers fill stroke;stop-color:#000000"
           id="rect1456-56-2-3"
           width="8.4666882"
           height="8.4666882"
           x="855.1333"
           y="1837.2666"
           rx="5.6444588"
           ry="5.6444588" />
      </g>
      <g
         id="g1902-75"
         style="display:inline"
         transform="translate(84.666692,29.633384)">
        <rect
           style="fill:#333333;stroke:#000000;stroke-width:3.175;stroke-linecap:square;stroke-linejoin:round;stroke-miterlimit:4;stroke-dasharray:none;stroke-opacity:0.996078;paint-order:markers fill stroke;stop-color:#000000"
           id="rect1456-9"
           width="25.4"
           height="25.4"
           x="846.66669"
           y="1828.7999"
           rx="16.933332"
           ry="16.933332" />
        <rect
           style="display:inline;fill:#4d4d4d;stroke:#000000;stroke-width:1.05834;stroke-linecap:square;stroke-linejoin:round;stroke-miterlimit:4;stroke-dasharray:none;stroke-opacity:0.996078;paint-order:markers fill stroke;stop-color:#000000"
           id="rect1456-56-2-22"
           width="8.4666882"
           height="8.4666882"
           x="855.1333"
           y="1837.2666"
           rx="5.6444588"
           ry="5.6444588" />
      </g>
      <g
         id="g1902-8"
         style="display:inline"
         transform="translate(118.53336,29.633384)">
        <rect
           style="fill:#333333;stroke:#000000;stroke-width:3.175;stroke-linecap:square;stroke-linejoin:round;stroke-miterlimit:4;stroke-dasharray:none;stroke-opacity:0.996078;paint-order:markers fill stroke;stop-color:#000000"
           id="rect1456-97"
           width="25.4"
           height="25.4"
           x="846.66669"
           y="1828.7999"
           rx="16.933332"
           ry="16.933332" />
        <rect
           style="display:inline;fill:#4d4d4d;stroke:#000000;stroke-width:1.05834;stroke-linecap:square;stroke-linejoin:round;stroke-miterlimit:4;stroke-dasharray:none;stroke-opacity:0.996078;paint-order:markers fill stroke;stop-color:#000000"
           id="rect1456-56-2-36"
           width="8.4666882"
           height="8.4666882"
           x="855.1333"
           y="1837.2666"
           rx="5.6444588"
           ry="5.6444588" />
      </g>
      <g
         id="g1902-12"
         style="display:inline"
         transform="translate(152.40002,29.633376)">
        <rect
           style="fill:#333333;stroke:#000000;stroke-width:3.175;stroke-linecap:square;stroke-linejoin:round;stroke-miterlimit:4;stroke-dasharray:none;stroke-opacity:0.996078;paint-order:markers fill stroke;stop-color:#000000"
           id="rect1456-93"
           width="25.4"
           height="25.4"
           x="846.66669"
           y="1828.7999"
           rx="16.933332"
           ry="16.933332" />
        <rect
           style="display:inline;fill:#4d4d4d;stroke:#000000;stroke-width:1.05834;stroke-linecap:square;stroke-linejoin:round;stroke-miterlimit:4;stroke-dasharray:none;stroke-opacity:0.996078;paint-order:markers fill stroke;stop-color:#000000"
           id="rect1456-56-2-1"
           width="8.4666882"
           height="8.4666882"
           x="855.1333"
           y="1837.2666"
           rx="5.6444588"
           ry="5.6444588" />
      </g>
    </g>
    <g
       id="g2395-9"
       style="display:inline"
       transform="matrix(-1,0,0,1,1625.6,4.2432813e-5)">
      <g
         id="g1902-4">
        <rect
           style="fill:#333333;stroke:#000000;stroke-width:3.175;stroke-linecap:square;stroke-linejoin:round;stroke-miterlimit:4;stroke-dasharray:none;stroke-opacity:0.996078;paint-order:markers fill stroke;stop-color:#000000"
           id="rect1456-7"
           width="25.4"
           height="25.4"
           x="846.66669"
           y="1828.7999"
           rx="16.933332"
           ry="16.933332" />
        <rect
           style="display:inline;fill:#4d4d4d;stroke:#000000;stroke-width:1.05834;stroke-linecap:square;stroke-linejoin:round;stroke-miterlimit:4;stroke-dasharray:none;stroke-opacity:0.996078;paint-order:markers fill stroke;stop-color:#000000"
           id="rect1456-56-2-8"
           width="8.4666882"
           height="8.4666882"
           x="855.1333"
           y="1837.2666"
           rx="5.6444588"
           ry="5.6444588" />
      </g>
      <g
         id="g1902-9-4"
         style="display:inline"
         transform="translate(33.866692,5.06375e-5)">
        <rect
           style="fill:#333333;stroke:#000000;stroke-width:3.175;stroke-linecap:square;stroke-linejoin:round;stroke-miterlimit:4;stroke-dasharray:none;stroke-opacity:0.996078;paint-order:markers fill stroke;stop-color:#000000"
           id="rect1456-1-5"
           width="25.4"
           height="25.4"
           x="846.66669"
           y="1828.7999"
           rx="16.933332"
           ry="16.933332" />
        <rect
           style="display:inline;fill:#4d4d4d;stroke:#000000;stroke-width:1.05834;stroke-linecap:square;stroke-linejoin:round;stroke-miterlimit:4;stroke-dasharray:none;stroke-opacity:0.996078;paint-order:markers fill stroke;stop-color:#000000"
           id="rect1456-56-2-2-0"
           width="8.4666882"
           height="8.4666882"
           x="855.1333"
           y="1837.2666"
           rx="5.6444588"
           ry="5.6444588" />
      </g>
      <g
         id="g1902-7-3"
         style="display:inline"
         transform="translate(67.733359,5.06375e-5)">
        <rect
           style="fill:#333333;stroke:#000000;stroke-width:3.175;stroke-linecap:square;stroke-linejoin:round;stroke-miterlimit:4;stroke-dasharray:none;stroke-opacity:0.996078;paint-order:markers fill stroke;stop-color:#000000"
           id="rect1456-0-6"
           width="25.4"
           height="25.4"
           x="846.66669"
           y="1828.7999"
           rx="16.933332"
           ry="16.933332" />
        <rect
           style="display:inline;fill:#4d4d4d;stroke:#000000;stroke-width:1.05834;stroke-linecap:square;stroke-linejoin:round;stroke-miterlimit:4;stroke-dasharray:none;stroke-opacity:0.996078;paint-order:markers fill stroke;stop-color:#000000"
           id="rect1456-56-2-9-1"
           width="8.4666882"
           height="8.4666882"
           x="855.1333"
           y="1837.2666"
           rx="5.6444588"
           ry="5.6444588" />
      </g>
      <g
         id="g1902-3-0"
         style="display:inline"
         transform="translate(101.60003,5.06375e-5)">
        <rect
           style="fill:#333333;stroke:#000000;stroke-width:3.175;stroke-linecap:square;stroke-linejoin:round;stroke-miterlimit:4;stroke-dasharray:none;stroke-opacity:0.996078;paint-order:markers fill stroke;stop-color:#000000"
           id="rect1456-6-6"
           width="25.4"
           height="25.4"
           x="846.66669"
           y="1828.7999"
           rx="16.933332"
           ry="16.933332" />
        <rect
           style="display:inline;fill:#4d4d4d;stroke:#000000;stroke-width:1.05834;stroke-linecap:square;stroke-linejoin:round;stroke-miterlimit:4;stroke-dasharray:none;stroke-opacity:0.996078;paint-order:markers fill stroke;stop-color:#000000"
           id="rect1456-56-2-0-3"
           width="8.4666882"
           height="8.4666882"
           x="855.1333"
           y="1837.2666"
           rx="5.6444588"
           ry="5.6444588" />
      </g>
      <g
         id="g1902-6-2"
         style="display:inline"
         transform="translate(135.46669,5.06375e-5)">
        <rect
           style="fill:#333333;stroke:#000000;stroke-width:3.175;stroke-linecap:square;stroke-linejoin:round;stroke-miterlimit:4;stroke-dasharray:none;stroke-opacity:0.996078;paint-order:markers fill stroke;stop-color:#000000"
           id="rect1456-2-0"
           width="25.4"
           height="25.4"
           x="846.66669"
           y="1828.7999"
           rx="16.933332"
           ry="16.933332" />
        <rect
           style="display:inline;fill:#4d4d4d;stroke:#000000;stroke-width:1.05834;stroke-linecap:square;stroke-linejoin:round;stroke-miterlimit:4;stroke-dasharray:none;stroke-opacity:0.996078;paint-order:markers fill stroke;stop-color:#000000"
           id="rect1456-56-2-6-6"
           width="8.4666882"
           height="8.4666882"
           x="855.1333"
           y="1837.2666"
           rx="5.6444588"
           ry="5.6444588" />
      </g>
      <g
         id="g1902-1-1"
         style="display:inline"
         transform="translate(16.933359,29.633384)">
        <rect
           style="fill:#333333;stroke:#000000;stroke-width:3.175;stroke-linecap:square;stroke-linejoin:round;stroke-miterlimit:4;stroke-dasharray:none;stroke-opacity:0.996078;paint-order:markers fill stroke;stop-color:#000000"
           id="rect1456-8-5"
           width="25.4"
           height="25.4"
           x="846.66669"
           y="1828.7999"
           rx="16.933332"
           ry="16.933332" />
        <rect
           style="display:inline;fill:#4d4d4d;stroke:#000000;stroke-width:1.05834;stroke-linecap:square;stroke-linejoin:round;stroke-miterlimit:4;stroke-dasharray:none;stroke-opacity:0.996078;paint-order:markers fill stroke;stop-color:#000000"
           id="rect1456-56-2-7-5"
           width="8.4666882"
           height="8.4666882"
           x="855.1333"
           y="1837.2666"
           rx="5.6444588"
           ry="5.6444588" />
      </g>
      <g
         id="g1902-92-4"
         style="display:inline"
         transform="translate(50.800025,29.633384)">
        <rect
           style="fill:#333333;stroke:#000000;stroke-width:3.175;stroke-linecap:square;stroke-linejoin:round;stroke-miterlimit:4;stroke-dasharray:none;stroke-opacity:0.996078;paint-order:markers fill stroke;stop-color:#000000"
           id="rect1456-02-7"
           width="25.4"
           height="25.4"
           x="846.66669"
           y="1828.7999"
           rx="16.933332"
           ry="16.933332" />
        <rect
           style="display:inline;fill:#4d4d4d;stroke:#000000;stroke-width:1.05834;stroke-linecap:square;stroke-linejoin:round;stroke-miterlimit:4;stroke-dasharray:none;stroke-opacity:0.996078;paint-order:markers fill stroke;stop-color:#000000"
           id="rect1456-56-2-3-6"
           width="8.4666882"
           height="8.4666882"
           x="855.1333"
           y="1837.2666"
           rx="5.6444588"
           ry="5.6444588" />
      </g>
      <g
         id="g1902-75-5"
         style="display:inline"
         transform="translate(84.666692,29.633384)">
        <rect
           style="fill:#333333;stroke:#000000;stroke-width:3.175;stroke-linecap:square;stroke-linejoin:round;stroke-miterlimit:4;stroke-dasharray:none;stroke-opacity:0.996078;paint-order:markers fill stroke;stop-color:#000000"
           id="rect1456-9-6"
           width="25.4"
           height="25.4"
           x="846.66669"
           y="1828.7999"
           rx="16.933332"
           ry="16.933332" />
        <rect
           style="display:inline;fill:#4d4d4d;stroke:#000000;stroke-width:1.05834;stroke-linecap:square;stroke-linejoin:round;stroke-miterlimit:4;stroke-dasharray:none;stroke-opacity:0.996078;paint-order:markers fill stroke;stop-color:#000000"
           id="rect1456-56-2-22-9"
           width="8.4666882"
           height="8.4666882"
           x="855.1333"
           y="1837.2666"
           rx="5.6444588"
           ry="5.6444588" />
      </g>
      <g
         id="g1902-8-3"
         style="display:inline"
         transform="translate(118.53336,29.633384)">
        <rect
           style="fill:#333333;stroke:#000000;stroke-width:3.175;stroke-linecap:square;stroke-linejoin:round;stroke-miterlimit:4;stroke-dasharray:none;stroke-opacity:0.996078;paint-order:markers fill stroke;stop-color:#000000"
           id="rect1456-97-7"
           width="25.4"
           height="25.4"
           x="846.66669"
           y="1828.7999"
           rx="16.933332"
           ry="16.933332" />
        <rect
           style="display:inline;fill:#4d4d4d;stroke:#000000;stroke-width:1.05834;stroke-linecap:square;stroke-linejoin:round;stroke-miterlimit:4;stroke-dasharray:none;stroke-opacity:0.996078;paint-order:markers fill stroke;stop-color:#000000"
           id="rect1456-56-2-36-4"
           width="8.4666882"
           height="8.4666882"
           x="855.1333"
           y="1837.2666"
           rx="5.6444588"
           ry="5.6444588" />
      </g>
      <g
         id="g1902-12-5"
         style="display:inline"
         transform="translate(152.40002,29.633376)">
        <rect
           style="fill:#333333;stroke:#000000;stroke-width:3.175;stroke-linecap:square;stroke-linejoin:round;stroke-miterlimit:4;stroke-dasharray:none;stroke-opacity:0.996078;paint-order:markers fill stroke;stop-color:#000000"
           id="rect1456-93-2"
           width="25.4"
           height="25.4"
           x="846.66669"
           y="1828.7999"
           rx="16.933332"
           ry="16.933332" />
        <rect
           style="display:inline;fill:#4d4d4d;stroke:#000000;stroke-width:1.05834;stroke-linecap:square;stroke-linejoin:round;stroke-miterlimit:4;stroke-dasharray:none;stroke-opacity:0.996078;paint-order:markers fill stroke;stop-color:#000000"
           id="rect1456-56-2-1-5"
           width="8.4666882"
           height="8.4666882"
           x="855.1333"
           y="1837.2666"
           rx="5.6444588"
           ry="5.6444588" />
      </g>
    </g>
  </g>
</svg>
