<?xml version="1.0" encoding="UTF-8" standalone="no"?>
<svg
   width="8192"
   height="15360"
   viewBox="0 0 2167.4666 4063.9998"
   version="1.1"
   id="svg8"
   inkscape:version="1.1.2 (0a00cf5339, 2022-02-04)"
   sodipodi:docname="python.svg"
   xmlns:inkscape="http://www.inkscape.org/namespaces/inkscape"
   xmlns:sodipodi="http://sodipodi.sourceforge.net/DTD/sodipodi-0.dtd"
   xmlns="http://www.w3.org/2000/svg"
   xmlns:svg="http://www.w3.org/2000/svg"
   xmlns:rdf="http://www.w3.org/1999/02/22-rdf-syntax-ns#"
   xmlns:cc="http://creativecommons.org/ns#"
   xmlns:dc="http://purl.org/dc/elements/1.1/">
  <defs
     id="defs2">
    <linearGradient
       id="linearGradient3630"
       inkscape:swatch="solid">
      <stop
         style="stop-color:#890000;stop-opacity:1;"
         offset="0"
         id="stop3628" />
    </linearGradient>
  </defs>
  <sodipodi:namedview
     id="base"
     pagecolor="#ffffff"
     bordercolor="#666666"
     borderopacity="1.0"
     inkscape:pageopacity="0"
     inkscape:pageshadow="2"
     inkscape:zoom="0.087500002"
     inkscape:cx="5548.5713"
     inkscape:cy="9697.1426"
     inkscape:document-units="px"
     inkscape:current-layer="layer3"
     inkscape:document-rotation="0"
     showgrid="true"
     units="px"
     inkscape:window-width="2560"
     inkscape:window-height="1343"
     inkscape:window-x="1200"
     inkscape:window-y="124"
     inkscape:window-maximized="1"
     inkscape:snap-grids="true"
     inkscape:pagecheckerboard="0"
     height="8960px"
     inkscape:snap-smooth-nodes="true"
     inkscape:snap-object-midpoints="true">
    <inkscape:grid
       type="xygrid"
       id="grid833"
       units="px"
       empspacing="4"
       spacingy="4.2333332"
       spacingx="4.2333332" />
  </sodipodi:namedview>
  <metadata
     id="metadata5">
    <rdf:RDF>
      <cc:Work
         rdf:about="">
        <dc:format>image/svg+xml</dc:format>
        <dc:type
           rdf:resource="http://purl.org/dc/dcmitype/StillImage" />
      </cc:Work>
    </rdf:RDF>
  </metadata>
  <g
     inkscape:groupmode="layer"
     id="layer3"
     inkscape:label="Python"
     style="opacity:1">
    <path
       style="opacity:1;fill:#1a1a1a;stroke:#ffcc00;stroke-width:4.23333;stroke-linecap:square;stroke-linejoin:bevel;stroke-miterlimit:4;stroke-dasharray:none;stroke-opacity:0.996078;stop-color:#000000;fill-opacity:1"
       d="m 1523.9999,1202.2666 h 16.9334 l 135.4666,541.8667 h -16.9333 z"
       id="path3315" />
    <path
       style="fill:#1a1a1a;fill-opacity:1;stroke:#ffcc00;stroke-width:4.23333;stroke-linecap:square;stroke-linejoin:bevel;stroke-miterlimit:4;stroke-dasharray:none;stroke-opacity:0.996078;stop-color:#000000"
       d="m 643.46672,1202.2666 h -16.9334 l -135.4666,541.8667 h 16.9333 z"
       id="path3315-5" />
    <g
       id="g7978">
      <rect
         style="opacity:1;fill:#000000;fill-opacity:1;stroke:none;stroke-width:4.23333;stroke-linecap:square;stroke-linejoin:bevel;stroke-miterlimit:4;stroke-dasharray:none;stroke-opacity:0.996078;stop-color:#000000"
         id="rect7889"
         width="114.3"
         height="63.499996"
         x="685.79999"
         y="3987.7998" />
      <rect
         style="opacity:1;fill:#000000;fill-opacity:1;stroke:none;stroke-width:4.23333;stroke-linecap:square;stroke-linejoin:bevel;stroke-miterlimit:4;stroke-dasharray:none;stroke-opacity:0.996078;stop-color:#000000"
         id="rect7891"
         width="131.23332"
         height="12.7"
         x="677.33331"
         y="4013.1997" />
      <rect
         style="opacity:1;fill:#000000;fill-opacity:1;stroke:none;stroke-width:4.23333;stroke-linecap:square;stroke-linejoin:bevel;stroke-miterlimit:4;stroke-dasharray:none;stroke-opacity:0.996078;stop-color:#000000"
         id="rect7893"
         width="131.23332"
         height="12.7"
         x="677.33331"
         y="4034.3665" />
    </g>
    <g
       id="g7978-4"
       transform="translate(139.69999,1.6656875e-4)">
      <rect
         style="opacity:1;fill:#000000;fill-opacity:1;stroke:none;stroke-width:4.23333;stroke-linecap:square;stroke-linejoin:bevel;stroke-miterlimit:4;stroke-dasharray:none;stroke-opacity:0.996078;stop-color:#000000"
         id="rect7889-5"
         width="114.3"
         height="63.499996"
         x="685.79999"
         y="3987.7998" />
      <rect
         style="opacity:1;fill:#000000;fill-opacity:1;stroke:none;stroke-width:4.23333;stroke-linecap:square;stroke-linejoin:bevel;stroke-miterlimit:4;stroke-dasharray:none;stroke-opacity:0.996078;stop-color:#000000"
         id="rect7891-0"
         width="131.23332"
         height="12.7"
         x="677.33331"
         y="4013.1997" />
      <rect
         style="opacity:1;fill:#000000;fill-opacity:1;stroke:none;stroke-width:4.23333;stroke-linecap:square;stroke-linejoin:bevel;stroke-miterlimit:4;stroke-dasharray:none;stroke-opacity:0.996078;stop-color:#000000"
         id="rect7893-3"
         width="131.23332"
         height="12.7"
         x="677.33331"
         y="4034.3665" />
    </g>
    <g
       id="g7978-6"
       transform="translate(548.21665,-2.1167249)">
      <rect
         style="opacity:1;fill:#000000;fill-opacity:1;stroke:none;stroke-width:4.23333;stroke-linecap:square;stroke-linejoin:bevel;stroke-miterlimit:4;stroke-dasharray:none;stroke-opacity:0.996078;stop-color:#000000"
         id="rect7889-1"
         width="114.3"
         height="63.499996"
         x="685.79999"
         y="3987.7998" />
      <rect
         style="opacity:1;fill:#000000;fill-opacity:1;stroke:none;stroke-width:4.23333;stroke-linecap:square;stroke-linejoin:bevel;stroke-miterlimit:4;stroke-dasharray:none;stroke-opacity:0.996078;stop-color:#000000"
         id="rect7891-06"
         width="131.23332"
         height="12.7"
         x="677.33331"
         y="4013.1997" />
      <rect
         style="opacity:1;fill:#000000;fill-opacity:1;stroke:none;stroke-width:4.23333;stroke-linecap:square;stroke-linejoin:bevel;stroke-miterlimit:4;stroke-dasharray:none;stroke-opacity:0.996078;stop-color:#000000"
         id="rect7893-32"
         width="131.23332"
         height="12.7"
         x="677.33331"
         y="4034.3665" />
    </g>
    <g
       id="g7978-4-0"
       transform="translate(687.91664,-2.1165579)">
      <rect
         style="opacity:1;fill:#000000;fill-opacity:1;stroke:none;stroke-width:4.23333;stroke-linecap:square;stroke-linejoin:bevel;stroke-miterlimit:4;stroke-dasharray:none;stroke-opacity:0.996078;stop-color:#000000"
         id="rect7889-5-6"
         width="114.3"
         height="63.499996"
         x="685.79999"
         y="3987.7998" />
      <rect
         style="opacity:1;fill:#000000;fill-opacity:1;stroke:none;stroke-width:4.23333;stroke-linecap:square;stroke-linejoin:bevel;stroke-miterlimit:4;stroke-dasharray:none;stroke-opacity:0.996078;stop-color:#000000"
         id="rect7891-0-1"
         width="131.23332"
         height="12.7"
         x="677.33331"
         y="4013.1997" />
      <rect
         style="opacity:1;fill:#000000;fill-opacity:1;stroke:none;stroke-width:4.23333;stroke-linecap:square;stroke-linejoin:bevel;stroke-miterlimit:4;stroke-dasharray:none;stroke-opacity:0.996078;stop-color:#000000"
         id="rect7893-3-5"
         width="131.23332"
         height="12.7"
         x="677.33331"
         y="4034.3665" />
    </g>
    <path
       style="fill:#999999;stroke:#000000;stroke-width:4.23333;stroke-linecap:square;stroke-linejoin:bevel;stroke-miterlimit:4;stroke-dasharray:none;stroke-opacity:0.996078;stop-color:#000000"
       d="M 948.26662,67.73333 H 1219.1999 L 1253.0666,101.6 2082.8,3386.6666 v 67.7333 l -287.8667,541.8667 H 372.53333 l -287.866665,-541.8667 0,-67.7333 L 914.39998,101.6 Z"
       id="path378"
       sodipodi:nodetypes="ccccccccccc" />
    <rect
       style="fill:#ff0000;fill-opacity:1;stroke:none;stroke-width:4.23333;stroke-linecap:round;stroke-linejoin:round;stroke-dashoffset:49.5999;paint-order:markers fill stroke;stop-color:#000000"
       id="rect5616-28"
       width="67.73333"
       height="16.933332"
       x="1422.3999"
       y="2421.4666"
       rx="3.7665624e-05"
       ry="3.7665624e-05" />
    <path
       style="fill:#ff0000;stroke:#000000;stroke-width:4.23333;stroke-linecap:square;stroke-linejoin:bevel;stroke-miterlimit:4;stroke-dasharray:none;stroke-opacity:0.996078;stop-color:#000000"
       d="M 982.13331,152.39999 H 1185.3333 L 1168.4,626.5333 H 999.06664 Z"
       id="path1609" />
    <path
       style="fill:#ff0000;stroke:#000000;stroke-width:4.23333;stroke-linecap:square;stroke-linejoin:bevel;stroke-miterlimit:4;stroke-dasharray:none;stroke-opacity:0.996078;stop-color:#000000"
       d="M 999.06664,694.26666 H 1168.4 l -16.9334,491.06664 H 1016 Z"
       id="path1895" />
    <path
       style="fill:#ff0000;stroke:#000000;stroke-width:4.23333;stroke-linecap:square;stroke-linejoin:bevel;stroke-miterlimit:4;stroke-dasharray:none;stroke-opacity:0.996078;stop-color:#000000"
       d="m 1032.9333,1253.0666 h 101.6 L 1117.6,1727.1999 h -67.7334 z"
       id="path1897" />
    <path
       style="fill:#ff0000;stroke:#000000;stroke-width:4.23333;stroke-linecap:square;stroke-linejoin:bevel;stroke-miterlimit:4;stroke-dasharray:none;stroke-opacity:0.996078;stop-color:#000000"
       d="M 1236.1333,338.66665 V 626.5333 H 1320.8 l -84.6667,-287.86665"
       id="path1899" />
    <path
       style="fill:#ff0000;stroke:#000000;stroke-width:4.23333;stroke-linecap:square;stroke-linejoin:bevel;stroke-miterlimit:4;stroke-dasharray:none;stroke-opacity:0.996078;stop-color:#000000"
       d="m 846.66665,626.5333 h 84.66666 V 338.66665 Z"
       id="path1901" />
    <path
       style="fill:#ff0000;stroke:#000000;stroke-width:4.23333;stroke-linecap:square;stroke-linejoin:bevel;stroke-miterlimit:4;stroke-dasharray:none;stroke-opacity:0.996078;stop-color:#000000"
       d="m 1236.1333,694.26666 h 101.6 l 118.5333,491.06664 h -220.1333 z"
       id="path1904" />
    <path
       style="fill:#ff0000;stroke:#000000;stroke-width:4.23333;stroke-linecap:square;stroke-linejoin:bevel;stroke-miterlimit:4;stroke-dasharray:none;stroke-opacity:0.996078;stop-color:#000000"
       d="M 931.33331,694.26666 V 1185.3333 H 711.19999 L 829.73332,694.26666 Z"
       id="path1906" />
    <path
       style="fill:#ff0000;stroke:#000000;stroke-width:4.23333;stroke-linecap:square;stroke-linejoin:bevel;stroke-miterlimit:4;stroke-dasharray:none;stroke-opacity:0.996078;stop-color:#000000"
       d="m 1219.2,1253.0666 h 254 l 118.5333,474.1333 h -406.4 z"
       id="path1908" />
    <path
       style="fill:#000000;fill-opacity:0.349432;stroke:#000000;stroke-width:4.23333;stroke-linecap:round;stroke-linejoin:round;stroke-dashoffset:49.5999;paint-order:markers fill stroke;stop-color:#000000"
       d="M 84.666662,3420.5332 H 2082.7999"
       id="path323" />
    <path
       style="fill:#d40000;stroke:#666666;stroke-width:4.23333;stroke-linecap:square;stroke-linejoin:bevel;stroke-miterlimit:4;stroke-dasharray:none;stroke-opacity:0.996078;stop-color:#000000"
       d="M 880.53332,3691.4665 H 1286.9333 L 1574.7999,3420.5332 1151.4666,1761.0666 H 1016 L 592.66664,3420.5332 Z"
       id="path2048" />
    <path
       style="fill:#ff0000;stroke:#000000;stroke-width:4.23333;stroke-linecap:square;stroke-linejoin:bevel;stroke-miterlimit:4;stroke-dasharray:none;stroke-opacity:0.996078;stop-color:#000000"
       d="M 1049.8666,1794.9333 H 1117.6 l 135.4666,491.0666 H 914.39998 Z"
       id="path1910" />
    <path
       style="fill:#ff0000;stroke:#000000;stroke-width:4.23333;stroke-linecap:square;stroke-linejoin:bevel;stroke-miterlimit:4;stroke-dasharray:none;stroke-opacity:0.996078;stop-color:#000000"
       d="M 897.46665,2353.7333 H 1270 l 118.5333,474.1332 H 778.93332 Z"
       id="path1912" />
    <path
       style="fill:#ff0000;stroke:#000000;stroke-width:4.23333;stroke-linecap:square;stroke-linejoin:bevel;stroke-miterlimit:4;stroke-dasharray:none;stroke-opacity:0.996078;stop-color:#000000"
       d="m 761.99999,2895.5999 h 643.46661 l 118.5333,491.0666 H 643.46663 Z"
       id="path1914" />
    <path
       style="fill:#ff0000;stroke:#000000;stroke-width:4.23333;stroke-linecap:square;stroke-linejoin:bevel;stroke-miterlimit:4;stroke-dasharray:none;stroke-opacity:0.996078;stop-color:#000000"
       d="m 677.33333,3454.3998 h 812.79997 l -203.2,203.2 H 880.53332 Z"
       id="path1916" />
    <path
       style="fill:#ff0000;stroke:#000000;stroke-width:4.23333;stroke-linecap:square;stroke-linejoin:bevel;stroke-miterlimit:4;stroke-dasharray:none;stroke-opacity:0.996078;stop-color:#000000"
       d="m 1202.2666,1794.9333 h 406.4 l 118.5333,491.0666 -406.3999,0 -118.5334,-491.0666"
       id="path1918"
       sodipodi:nodetypes="ccccc" />
    <path
       style="fill:#ff0000;stroke:#000000;stroke-width:4.23333;stroke-linecap:square;stroke-linejoin:bevel;stroke-miterlimit:4;stroke-dasharray:none;stroke-opacity:0.996078;stop-color:#000000"
       d="m 1337.7333,2353.7333 h 406.4 l 118.5333,474.1332 h -406.4 z"
       id="path2042" />
    <path
       style="fill:#ff0000;stroke:#000000;stroke-width:4.23333;stroke-linecap:square;stroke-linejoin:bevel;stroke-miterlimit:4;stroke-dasharray:none;stroke-opacity:0.996078;stop-color:#000000"
       d="m 1473.2,2895.5999 h 406.3999 l 135.4667,491.0666 h -406.4 z"
       id="path2044" />
    <path
       style="fill:#ff0000;stroke:#000000;stroke-width:4.23333;stroke-linecap:square;stroke-linejoin:bevel;stroke-miterlimit:4;stroke-dasharray:none;stroke-opacity:0.996078;stop-color:#000000"
       d="m 1354.6666,3691.4665 220.1333,-237.0667 h 423.3334 l -237.0667,474.1333 z"
       id="path2046" />
    <path
       style="opacity:1;fill:#ff0000;stroke:#000000;stroke-width:4.23333;stroke-linecap:square;stroke-linejoin:bevel;stroke-miterlimit:4;stroke-dasharray:none;stroke-opacity:0.996078;stop-color:#000000"
       d="m 948.26665,1253.0666 h -254 l -118.5333,474.1333 h 406.4 z"
       id="path1908-3" />
    <path
       style="opacity:1;fill:#ff0000;stroke:#000000;stroke-width:4.23333;stroke-linecap:square;stroke-linejoin:bevel;stroke-miterlimit:4;stroke-dasharray:none;stroke-opacity:0.996078;stop-color:#000000"
       d="m 965.20005,1794.9333 -406.40007,0 -118.53333,491.0666 h 406.4 l 118.5334,-491.0666"
       id="path1918-6"
       sodipodi:nodetypes="ccccc" />
    <path
       style="opacity:1;fill:#ff0000;stroke:#000000;stroke-width:4.23333;stroke-linecap:square;stroke-linejoin:bevel;stroke-miterlimit:4;stroke-dasharray:none;stroke-opacity:0.996078;stop-color:#000000"
       d="m 829.73335,2353.7333 h -406.4 l -118.5333,474.1332 h 406.4 z"
       id="path2042-7" />
    <path
       style="opacity:1;fill:#ff0000;stroke:#000000;stroke-width:4.23333;stroke-linecap:square;stroke-linejoin:bevel;stroke-miterlimit:4;stroke-dasharray:none;stroke-opacity:0.996078;stop-color:#000000"
       d="m 694.26665,2895.5999 h -406.3999 l -135.4667,491.0666 h 406.4 z"
       id="path2044-5" />
    <path
       style="opacity:1;fill:#ff0000;stroke:#000000;stroke-width:4.23333;stroke-linecap:square;stroke-linejoin:bevel;stroke-miterlimit:4;stroke-dasharray:none;stroke-opacity:0.996078;stop-color:#000000"
       d="m 812.80005,3691.4665 -220.1333,-237.0667 h -423.3334 l 237.0667,474.1333 z"
       id="path2046-3" />
    <g
       id="g7120"
       transform="translate(1.4427271e-5,8.4666913)"
       style="opacity:1">
      <circle
         style="opacity:1;fill:#333333;fill-opacity:1;stroke:#000000;stroke-width:4.23333;stroke-linecap:square;stroke-linejoin:bevel;stroke-miterlimit:4;stroke-dasharray:none;stroke-opacity:0.996078;stop-color:#000000"
         id="path5845"
         cx="1092.2"
         cy="2311.3999"
         r="25.4" />
      <g
         id="g7107"
         transform="translate(-67.733334,-4.2332396)">
        <rect
           style="opacity:1;fill:#808080;fill-opacity:1;stroke:#000000;stroke-width:4.23333;stroke-linecap:square;stroke-linejoin:bevel;stroke-miterlimit:4;stroke-dasharray:none;stroke-opacity:0.996078;stop-color:#000000"
           id="rect5937"
           width="8.4666662"
           height="38.099998"
           x="1143"
           y="2275.4165" />
        <rect
           style="opacity:1;fill:#808080;fill-opacity:1;stroke:#000000;stroke-width:4.23333;stroke-linecap:square;stroke-linejoin:bevel;stroke-miterlimit:4;stroke-dasharray:none;stroke-opacity:0.996078;stop-color:#000000"
           id="rect5939"
           width="8.4666662"
           height="38.099998"
           x="1168.3999"
           y="2275.4165" />
        <path
           id="rect5913"
           style="opacity:1;fill:#808080;stroke:#000000;stroke-width:3.66619;stroke-linecap:square;stroke-linejoin:bevel;stroke-opacity:0.996078;stop-color:#000000"
           d="m 1134.5333,2302.9331 h 50.8 v 25.4003 l -12.7,-1e-4 -4.2333,8.4666 h -16.9334 l -4.2333,-8.4666 -12.7,1e-4 z"
           sodipodi:nodetypes="ccccccccc" />
        <circle
           style="opacity:1;fill:#808080;fill-opacity:1;stroke:#000000;stroke-width:4.23333;stroke-linecap:square;stroke-linejoin:bevel;stroke-miterlimit:4;stroke-dasharray:none;stroke-opacity:0.996078;stop-color:#000000"
           id="path6639"
           cx="1147.2333"
           cy="2315.6333"
           r="4.2333331" />
        <circle
           style="opacity:1;fill:#808080;fill-opacity:1;stroke:#000000;stroke-width:4.23333;stroke-linecap:square;stroke-linejoin:bevel;stroke-miterlimit:4;stroke-dasharray:none;stroke-opacity:0.996078;stop-color:#000000"
           id="path6641"
           cx="1172.6333"
           cy="2315.6333"
           r="4.2333331" />
        <rect
           style="opacity:1;fill:#aa8800;fill-opacity:1;stroke:none;stroke-width:4.23333;stroke-linecap:square;stroke-linejoin:bevel;stroke-miterlimit:4;stroke-dasharray:none;stroke-opacity:0.996078;stop-color:#000000"
           id="rect6665"
           width="8.4666662"
           height="4.2333331"
           x="1143"
           y="2283.8833" />
        <rect
           style="opacity:1;fill:#aa8800;fill-opacity:1;stroke:none;stroke-width:4.23333;stroke-linecap:square;stroke-linejoin:bevel;stroke-miterlimit:4;stroke-dasharray:none;stroke-opacity:0.996078;stop-color:#000000"
           id="rect6667"
           width="8.4666662"
           height="4.2333331"
           x="1168.3999"
           y="2283.8833" />
        <rect
           style="fill:#aa8800;fill-opacity:1;stroke:none;stroke-width:4.23333;stroke-linecap:square;stroke-linejoin:bevel;stroke-miterlimit:4;stroke-dasharray:none;stroke-opacity:0.996078;stop-color:#000000"
           id="rect6665-6"
           width="8.4666662"
           height="4.2333331"
           x="1143"
           y="2292.3499" />
        <rect
           style="fill:#aa8800;fill-opacity:1;stroke:none;stroke-width:4.23333;stroke-linecap:square;stroke-linejoin:bevel;stroke-miterlimit:4;stroke-dasharray:none;stroke-opacity:0.996078;stop-color:#000000"
           id="rect6667-2"
           width="8.4666662"
           height="4.2333331"
           x="1168.3999"
           y="2292.3499" />
      </g>
    </g>
    <g
       id="g7120-9"
       transform="translate(-237.06666,-1092.2)"
       style="opacity:1">
      <circle
         style="opacity:1;fill:#333333;fill-opacity:1;stroke:#000000;stroke-width:4.23333;stroke-linecap:square;stroke-linejoin:bevel;stroke-miterlimit:4;stroke-dasharray:none;stroke-opacity:0.996078;stop-color:#000000"
         id="path5845-1"
         cx="1092.2"
         cy="2311.3999"
         r="25.4" />
      <g
         id="g7107-2"
         transform="translate(-67.733334,-4.2332396)">
        <rect
           style="opacity:1;fill:#808080;fill-opacity:1;stroke:#000000;stroke-width:4.23333;stroke-linecap:square;stroke-linejoin:bevel;stroke-miterlimit:4;stroke-dasharray:none;stroke-opacity:0.996078;stop-color:#000000"
           id="rect5937-7"
           width="8.4666662"
           height="38.099998"
           x="1143"
           y="2275.4165" />
        <rect
           style="opacity:1;fill:#808080;fill-opacity:1;stroke:#000000;stroke-width:4.23333;stroke-linecap:square;stroke-linejoin:bevel;stroke-miterlimit:4;stroke-dasharray:none;stroke-opacity:0.996078;stop-color:#000000"
           id="rect5939-0"
           width="8.4666662"
           height="38.099998"
           x="1168.3999"
           y="2275.4165" />
        <path
           id="rect5913-9"
           style="opacity:1;fill:#808080;stroke:#000000;stroke-width:3.66619;stroke-linecap:square;stroke-linejoin:bevel;stroke-opacity:0.996078;stop-color:#000000"
           d="m 1134.5333,2302.9331 h 50.8 v 25.4003 l -12.7,-1e-4 -4.2333,8.4666 h -16.9334 l -4.2333,-8.4666 -12.7,1e-4 z"
           sodipodi:nodetypes="ccccccccc" />
        <circle
           style="opacity:1;fill:#808080;fill-opacity:1;stroke:#000000;stroke-width:4.23333;stroke-linecap:square;stroke-linejoin:bevel;stroke-miterlimit:4;stroke-dasharray:none;stroke-opacity:0.996078;stop-color:#000000"
           id="path6639-3"
           cx="1147.2333"
           cy="2315.6333"
           r="4.2333331" />
        <circle
           style="opacity:1;fill:#808080;fill-opacity:1;stroke:#000000;stroke-width:4.23333;stroke-linecap:square;stroke-linejoin:bevel;stroke-miterlimit:4;stroke-dasharray:none;stroke-opacity:0.996078;stop-color:#000000"
           id="path6641-6"
           cx="1172.6333"
           cy="2315.6333"
           r="4.2333331" />
        <rect
           style="opacity:1;fill:#aa8800;fill-opacity:1;stroke:none;stroke-width:4.23333;stroke-linecap:square;stroke-linejoin:bevel;stroke-miterlimit:4;stroke-dasharray:none;stroke-opacity:0.996078;stop-color:#000000"
           id="rect6665-0"
           width="8.4666662"
           height="4.2333331"
           x="1143"
           y="2283.8833" />
        <rect
           style="opacity:1;fill:#aa8800;fill-opacity:1;stroke:none;stroke-width:4.23333;stroke-linecap:square;stroke-linejoin:bevel;stroke-miterlimit:4;stroke-dasharray:none;stroke-opacity:0.996078;stop-color:#000000"
           id="rect6667-6"
           width="8.4666662"
           height="4.2333331"
           x="1168.3999"
           y="2283.8833" />
        <rect
           style="fill:#aa8800;fill-opacity:1;stroke:none;stroke-width:4.23333;stroke-linecap:square;stroke-linejoin:bevel;stroke-miterlimit:4;stroke-dasharray:none;stroke-opacity:0.996078;stop-color:#000000"
           id="rect6665-6-2"
           width="8.4666662"
           height="4.2333331"
           x="1143"
           y="2292.3499" />
        <rect
           style="fill:#aa8800;fill-opacity:1;stroke:none;stroke-width:4.23333;stroke-linecap:square;stroke-linejoin:bevel;stroke-miterlimit:4;stroke-dasharray:none;stroke-opacity:0.996078;stop-color:#000000"
           id="rect6667-2-6"
           width="8.4666662"
           height="4.2333331"
           x="1168.3999"
           y="2292.3499" />
      </g>
    </g>
    <g
       id="g7120-1"
       transform="translate(220.13333,-1092.1999)"
       style="opacity:1">
      <circle
         style="opacity:1;fill:#333333;fill-opacity:1;stroke:#000000;stroke-width:4.23333;stroke-linecap:square;stroke-linejoin:bevel;stroke-miterlimit:4;stroke-dasharray:none;stroke-opacity:0.996078;stop-color:#000000"
         id="path5845-8"
         cx="1092.2"
         cy="2311.3999"
         r="25.4" />
      <g
         id="g7107-7"
         transform="translate(-67.733334,-4.2332396)">
        <rect
           style="opacity:1;fill:#808080;fill-opacity:1;stroke:#000000;stroke-width:4.23333;stroke-linecap:square;stroke-linejoin:bevel;stroke-miterlimit:4;stroke-dasharray:none;stroke-opacity:0.996078;stop-color:#000000"
           id="rect5937-9"
           width="8.4666662"
           height="38.099998"
           x="1143"
           y="2275.4165" />
        <rect
           style="opacity:1;fill:#808080;fill-opacity:1;stroke:#000000;stroke-width:4.23333;stroke-linecap:square;stroke-linejoin:bevel;stroke-miterlimit:4;stroke-dasharray:none;stroke-opacity:0.996078;stop-color:#000000"
           id="rect5939-2"
           width="8.4666662"
           height="38.099998"
           x="1168.3999"
           y="2275.4165" />
        <path
           id="rect5913-0"
           style="opacity:1;fill:#808080;stroke:#000000;stroke-width:3.66619;stroke-linecap:square;stroke-linejoin:bevel;stroke-opacity:0.996078;stop-color:#000000"
           d="m 1134.5333,2302.9331 h 50.8 v 25.4003 l -12.7,-1e-4 -4.2333,8.4666 h -16.9334 l -4.2333,-8.4666 -12.7,1e-4 z"
           sodipodi:nodetypes="ccccccccc" />
        <circle
           style="opacity:1;fill:#808080;fill-opacity:1;stroke:#000000;stroke-width:4.23333;stroke-linecap:square;stroke-linejoin:bevel;stroke-miterlimit:4;stroke-dasharray:none;stroke-opacity:0.996078;stop-color:#000000"
           id="path6639-2"
           cx="1147.2333"
           cy="2315.6333"
           r="4.2333331" />
        <circle
           style="opacity:1;fill:#808080;fill-opacity:1;stroke:#000000;stroke-width:4.23333;stroke-linecap:square;stroke-linejoin:bevel;stroke-miterlimit:4;stroke-dasharray:none;stroke-opacity:0.996078;stop-color:#000000"
           id="path6641-3"
           cx="1172.6333"
           cy="2315.6333"
           r="4.2333331" />
        <rect
           style="opacity:1;fill:#aa8800;fill-opacity:1;stroke:none;stroke-width:4.23333;stroke-linecap:square;stroke-linejoin:bevel;stroke-miterlimit:4;stroke-dasharray:none;stroke-opacity:0.996078;stop-color:#000000"
           id="rect6665-7"
           width="8.4666662"
           height="4.2333331"
           x="1143"
           y="2283.8833" />
        <rect
           style="opacity:1;fill:#aa8800;fill-opacity:1;stroke:none;stroke-width:4.23333;stroke-linecap:square;stroke-linejoin:bevel;stroke-miterlimit:4;stroke-dasharray:none;stroke-opacity:0.996078;stop-color:#000000"
           id="rect6667-5"
           width="8.4666662"
           height="4.2333331"
           x="1168.3999"
           y="2283.8833" />
        <rect
           style="fill:#aa8800;fill-opacity:1;stroke:none;stroke-width:4.23333;stroke-linecap:square;stroke-linejoin:bevel;stroke-miterlimit:4;stroke-dasharray:none;stroke-opacity:0.996078;stop-color:#000000"
           id="rect6665-6-9"
           width="8.4666662"
           height="4.2333331"
           x="1143"
           y="2292.3499" />
        <rect
           style="fill:#aa8800;fill-opacity:1;stroke:none;stroke-width:4.23333;stroke-linecap:square;stroke-linejoin:bevel;stroke-miterlimit:4;stroke-dasharray:none;stroke-opacity:0.996078;stop-color:#000000"
           id="rect6667-2-2"
           width="8.4666662"
           height="4.2333331"
           x="1168.3999"
           y="2292.3499" />
      </g>
    </g>
    <g
       id="g7120-2"
       transform="translate(-4.1604633e-5,1107.0165)"
       style="opacity:1">
      <circle
         style="opacity:1;fill:#333333;fill-opacity:1;stroke:#000000;stroke-width:4.23333;stroke-linecap:square;stroke-linejoin:bevel;stroke-miterlimit:4;stroke-dasharray:none;stroke-opacity:0.996078;stop-color:#000000"
         id="path5845-89"
         cx="1092.2"
         cy="2311.3999"
         r="25.4" />
      <g
         id="g7107-73"
         transform="translate(-67.733334,-4.2332396)">
        <rect
           style="opacity:1;fill:#808080;fill-opacity:1;stroke:#000000;stroke-width:4.23333;stroke-linecap:square;stroke-linejoin:bevel;stroke-miterlimit:4;stroke-dasharray:none;stroke-opacity:0.996078;stop-color:#000000"
           id="rect5937-6"
           width="8.4666662"
           height="38.099998"
           x="1143"
           y="2275.4165" />
        <rect
           style="opacity:1;fill:#808080;fill-opacity:1;stroke:#000000;stroke-width:4.23333;stroke-linecap:square;stroke-linejoin:bevel;stroke-miterlimit:4;stroke-dasharray:none;stroke-opacity:0.996078;stop-color:#000000"
           id="rect5939-1"
           width="8.4666662"
           height="38.099998"
           x="1168.3999"
           y="2275.4165" />
        <path
           id="rect5913-2"
           style="opacity:1;fill:#808080;stroke:#000000;stroke-width:3.66619;stroke-linecap:square;stroke-linejoin:bevel;stroke-opacity:0.996078;stop-color:#000000"
           d="m 1134.5333,2302.9331 h 50.8 v 25.4003 l -12.7,-1e-4 -4.2333,8.4666 h -16.9334 l -4.2333,-8.4666 -12.7,1e-4 z"
           sodipodi:nodetypes="ccccccccc" />
        <circle
           style="opacity:1;fill:#808080;fill-opacity:1;stroke:#000000;stroke-width:4.23333;stroke-linecap:square;stroke-linejoin:bevel;stroke-miterlimit:4;stroke-dasharray:none;stroke-opacity:0.996078;stop-color:#000000"
           id="path6639-9"
           cx="1147.2333"
           cy="2315.6333"
           r="4.2333331" />
        <circle
           style="opacity:1;fill:#808080;fill-opacity:1;stroke:#000000;stroke-width:4.23333;stroke-linecap:square;stroke-linejoin:bevel;stroke-miterlimit:4;stroke-dasharray:none;stroke-opacity:0.996078;stop-color:#000000"
           id="path6641-31"
           cx="1172.6333"
           cy="2315.6333"
           r="4.2333331" />
        <rect
           style="opacity:1;fill:#aa8800;fill-opacity:1;stroke:none;stroke-width:4.23333;stroke-linecap:square;stroke-linejoin:bevel;stroke-miterlimit:4;stroke-dasharray:none;stroke-opacity:0.996078;stop-color:#000000"
           id="rect6665-9"
           width="8.4666662"
           height="4.2333331"
           x="1143"
           y="2283.8833" />
        <rect
           style="opacity:1;fill:#aa8800;fill-opacity:1;stroke:none;stroke-width:4.23333;stroke-linecap:square;stroke-linejoin:bevel;stroke-miterlimit:4;stroke-dasharray:none;stroke-opacity:0.996078;stop-color:#000000"
           id="rect6667-4"
           width="8.4666662"
           height="4.2333331"
           x="1168.3999"
           y="2283.8833" />
        <rect
           style="fill:#aa8800;fill-opacity:1;stroke:none;stroke-width:4.23333;stroke-linecap:square;stroke-linejoin:bevel;stroke-miterlimit:4;stroke-dasharray:none;stroke-opacity:0.996078;stop-color:#000000"
           id="rect6665-6-7"
           width="8.4666662"
           height="4.2333331"
           x="1143"
           y="2292.3499" />
        <rect
           style="fill:#aa8800;fill-opacity:1;stroke:none;stroke-width:4.23333;stroke-linecap:square;stroke-linejoin:bevel;stroke-miterlimit:4;stroke-dasharray:none;stroke-opacity:0.996078;stop-color:#000000"
           id="rect6667-2-8"
           width="8.4666662"
           height="4.2333331"
           x="1168.3999"
           y="2292.3499" />
      </g>
    </g>
    <rect
       style="fill:#d40000;stroke:none;stroke-width:2.11667;stroke-linecap:square;stroke-linejoin:bevel;stroke-opacity:0.996078;stop-color:#000000"
       id="rect211"
       width="16.933332"
       height="457.19998"
       x="1041.4"
       y="711.19995"
       ry="8.4666662" />
    <rect
       style="fill:#d40000;stroke:none;stroke-width:2.11667;stroke-linecap:square;stroke-linejoin:bevel;stroke-opacity:0.996078;stop-color:#000000"
       id="rect211-7"
       width="16.933332"
       height="457.19998"
       x="1109.1333"
       y="711.19995"
       ry="8.4666662" />
    <rect
       style="fill:#d40000;stroke:none;stroke-width:2.11667;stroke-linecap:square;stroke-linejoin:bevel;stroke-opacity:0.996078;stop-color:#000000"
       id="rect215"
       width="16.933332"
       height="457.19998"
       x="1075.2666"
       y="711.19995"
       ry="8.4666662" />
    <rect
       style="fill:#d40000;stroke:none;stroke-width:2.11667;stroke-linecap:square;stroke-linejoin:bevel;stroke-opacity:0.996078;stop-color:#000000"
       id="rect215-9"
       width="16.933332"
       height="457.19998"
       x="1075.2666"
       y="1261.5333"
       ry="8.4666662" />
    <rect
       style="fill:#4d4d4d;stroke:none;stroke-width:1.49671;stroke-linecap:square;stroke-linejoin:bevel;stroke-opacity:0.996078;stop-color:#000000"
       id="rect215-9-1"
       width="16.933332"
       height="228.60008"
       x="1049.8666"
       y="3725.3333"
       ry="8.4666662" />
    <rect
       style="fill:#4d4d4d;stroke:none;stroke-width:1.49671;stroke-linecap:square;stroke-linejoin:bevel;stroke-opacity:0.996078;stop-color:#000000"
       id="rect215-9-1-2"
       width="16.933332"
       height="228.60008"
       x="1117.6"
       y="3725.3333"
       ry="8.4666662" />
    <rect
       style="fill:#4d4d4d;stroke:none;stroke-width:1.49671;stroke-linecap:square;stroke-linejoin:bevel;stroke-opacity:0.996078;stop-color:#000000"
       id="rect215-9-1-2-7"
       width="16.933332"
       height="228.60008"
       x="1185.3333"
       y="3725.3333"
       ry="8.4666662" />
    <rect
       style="fill:#4d4d4d;stroke:none;stroke-width:1.49671;stroke-linecap:square;stroke-linejoin:bevel;stroke-opacity:0.996078;stop-color:#000000"
       id="rect215-9-1-2-0"
       width="16.933332"
       height="228.60008"
       x="1253.0667"
       y="3725.3333"
       ry="8.4666662" />
    <rect
       style="fill:#4d4d4d;stroke:none;stroke-width:1.49671;stroke-linecap:square;stroke-linejoin:bevel;stroke-opacity:0.996078;stop-color:#000000"
       id="rect215-9-1-2-3"
       width="16.933332"
       height="228.60008"
       x="982.1333"
       y="3725.3333"
       ry="8.4666662" />
    <rect
       style="fill:#4d4d4d;stroke:none;stroke-width:1.49671;stroke-linecap:square;stroke-linejoin:bevel;stroke-opacity:0.996078;stop-color:#000000"
       id="rect215-9-1-2-6"
       width="16.933332"
       height="228.60008"
       x="914.39996"
       y="3725.3333"
       ry="8.4666662" />
    <rect
       style="fill:#4d4d4d;stroke:none;stroke-width:1.49671;stroke-linecap:square;stroke-linejoin:bevel;stroke-opacity:0.996078;stop-color:#000000"
       id="rect215-9-1-2-06"
       width="16.933336"
       height="160.86656"
       x="846.66663"
       y="3793.0667"
       ry="8.4666662" />
    <rect
       style="fill:#4d4d4d;stroke:none;stroke-width:1.49671;stroke-linecap:square;stroke-linejoin:bevel;stroke-opacity:0.996078;stop-color:#000000"
       id="rect215-9-1-2-06-2"
       width="16.933329"
       height="93.133224"
       x="778.93329"
       y="3860.7998"
       ry="8.4666662" />
    <rect
       style="fill:#4d4d4d;stroke:none;stroke-width:1.49671;stroke-linecap:square;stroke-linejoin:bevel;stroke-opacity:0.996078;stop-color:#000000"
       id="rect215-9-1-2-06-6"
       width="16.933336"
       height="160.86656"
       x="-1337.7333"
       y="3793.0667"
       ry="8.4666662"
       transform="scale(-1,1)" />
    <rect
       style="fill:#4d4d4d;stroke:none;stroke-width:1.49671;stroke-linecap:square;stroke-linejoin:bevel;stroke-opacity:0.996078;stop-color:#000000"
       id="rect215-9-1-2-06-2-1"
       width="16.933329"
       height="93.133224"
       x="-1405.4667"
       y="3860.7998"
       ry="8.4666662"
       transform="scale(-1,1)" />
    <rect
       style="fill:#d40000;stroke:none;stroke-width:2.11667;stroke-linecap:square;stroke-linejoin:bevel;stroke-opacity:0.996078;stop-color:#000000"
       id="rect211-5"
       width="16.933332"
       height="457.19998"
       x="1041.4"
       y="169.33331"
       ry="8.4666662" />
    <rect
       style="fill:#d40000;stroke:none;stroke-width:2.11667;stroke-linecap:square;stroke-linejoin:bevel;stroke-opacity:0.996078;stop-color:#000000"
       id="rect211-7-3"
       width="16.933332"
       height="457.19998"
       x="1109.1333"
       y="169.33331"
       ry="8.4666662" />
    <rect
       style="fill:#d40000;stroke:none;stroke-width:2.11667;stroke-linecap:square;stroke-linejoin:bevel;stroke-opacity:0.996078;stop-color:#000000"
       id="rect211-3-5"
       width="16.933489"
       height="355.60001"
       x="1007.5333"
       y="169.33333"
       ry="8.4666929" />
    <rect
       style="fill:#d40000;stroke:none;stroke-width:2.11667;stroke-linecap:square;stroke-linejoin:bevel;stroke-opacity:0.996078;stop-color:#000000"
       id="rect211-3-6-6"
       width="16.933363"
       height="355.60001"
       x="1143"
       y="169.33333"
       ry="8.4666929" />
    <rect
       style="fill:#d40000;stroke:none;stroke-width:2.11667;stroke-linecap:square;stroke-linejoin:bevel;stroke-opacity:0.996078;stop-color:#000000"
       id="rect215-2"
       width="16.933332"
       height="457.19998"
       x="1075.2666"
       y="169.33331"
       ry="8.4666662" />
    <path
       style="fill:#000000;fill-opacity:0.349432;stroke:#000000;stroke-width:4.23333;stroke-linecap:round;stroke-linejoin:round;stroke-dashoffset:49.5999;paint-order:markers fill stroke;stop-color:#000000"
       d="M 948.26662,67.73333 1015.9999,1761.0666"
       id="path170" />
    <path
       style="fill:#000000;fill-opacity:0.349432;stroke:#000000;stroke-width:4.23333;stroke-linecap:round;stroke-linejoin:round;stroke-dashoffset:49.5999;paint-order:markers fill stroke;stop-color:#000000"
       d="M 1151.4666,1761.0666 1219.1999,67.73333"
       id="path172" />
    <path
       style="fill:#000000;fill-opacity:0.349432;stroke:#000000;stroke-width:4.23333;stroke-linecap:round;stroke-linejoin:round;stroke-dashoffset:49.5999;paint-order:markers fill stroke;stop-color:#000000"
       d="m 372.53331,3996.2665 507.99998,-304.8"
       id="path438" />
    <path
       style="fill:#000000;fill-opacity:0.349432;stroke:#000000;stroke-width:4.23333;stroke-linecap:round;stroke-linejoin:round;stroke-dashoffset:49.5999;paint-order:markers fill stroke;stop-color:#000000"
       d="m 1794.9333,3996.2665 -508,-304.8"
       id="path440" />
    <path
       style="fill:none;fill-opacity:0.349432;stroke:#800000;stroke-width:4.23333;stroke-linecap:round;stroke-linejoin:round;stroke-dashoffset:49.5999;paint-order:markers fill stroke;stop-color:#000000"
       d="M 592.66664,1828.7999 H 914.39995 L 812.79996,2252.1332 H 491.06664 Z"
       id="path954" />
    <path
       style="fill:none;fill-opacity:0.349432;stroke:#800000;stroke-width:4.23333;stroke-linecap:round;stroke-linejoin:round;stroke-dashoffset:49.5999;paint-order:markers fill stroke;stop-color:#000000"
       d="m 1574.7999,1828.7999 h -321.7333 l 101.6,423.3333 h 321.7333 z"
       id="path954-3" />
    <path
       style="fill:none;fill-opacity:0.349432;stroke:#800000;stroke-width:4.23333;stroke-linecap:round;stroke-linejoin:round;stroke-dashoffset:49.5999;paint-order:markers fill stroke;stop-color:#000000"
       d="m 999.06662,2235.1999 h 169.33328 l -67.7333,-287.8666 h -33.8667 z"
       id="path1208" />
    <path
       style="fill:none;fill-opacity:0.349432;stroke:#800000;stroke-width:4.23333;stroke-linecap:round;stroke-linejoin:round;stroke-dashoffset:49.5999;paint-order:markers fill stroke;stop-color:#000000"
       d="m 1066.7999,1828.7999 v 84.6667"
       id="path1210" />
    <path
       style="fill:none;fill-opacity:0.349432;stroke:#800000;stroke-width:4.23333;stroke-linecap:round;stroke-linejoin:round;stroke-dashoffset:49.5999;paint-order:markers fill stroke;stop-color:#000000"
       d="m 1083.7333,1828.7999 v 84.6667"
       id="path1212" />
    <path
       style="fill:none;fill-opacity:0.349432;stroke:#800000;stroke-width:4.23333;stroke-linecap:round;stroke-linejoin:round;stroke-dashoffset:49.5999;paint-order:markers fill stroke;stop-color:#000000"
       d="m 1100.6666,1828.7999 v 84.6667"
       id="path1214" />
    <path
       style="fill:none;fill-opacity:0.349432;stroke:#800000;stroke-width:4.23333;stroke-linecap:round;stroke-linejoin:round;stroke-dashoffset:49.5999;paint-order:markers fill stroke;stop-color:#000000"
       d="m 982.13328,2235.1999 33.86662,-135.4666"
       id="path1329" />
    <path
       style="fill:none;fill-opacity:0.349432;stroke:#800000;stroke-width:4.23333;stroke-linecap:round;stroke-linejoin:round;stroke-dashoffset:49.5999;paint-order:markers fill stroke;stop-color:#000000"
       d="m 1185.3333,2235.1999 -33.8667,-135.4666"
       id="path1331" />
    <rect
       style="fill:#999999;fill-opacity:1;stroke:none;stroke-width:4.23333;stroke-linecap:round;stroke-linejoin:round;stroke-dashoffset:49.5999;paint-order:markers fill stroke;stop-color:#000000"
       id="rect1435"
       width="203.1998"
       height="16.933311"
       x="1574.7999"
       y="2421.4666"
       rx="16.933146"
       ry="8.4666557" />
    <rect
       style="fill:#999999;fill-opacity:1;stroke:none;stroke-width:4.23333;stroke-linecap:round;stroke-linejoin:round;stroke-dashoffset:49.5999;paint-order:markers fill stroke;stop-color:#000000"
       id="rect1435-6"
       width="203.1998"
       height="16.933311"
       x="1591.7333"
       y="2472.2666"
       rx="16.933146"
       ry="8.4666557" />
    <rect
       style="fill:#999999;fill-opacity:1;stroke:none;stroke-width:4.23333;stroke-linecap:round;stroke-linejoin:round;stroke-dashoffset:49.5999;paint-order:markers fill stroke;stop-color:#000000"
       id="rect1435-7"
       width="203.1998"
       height="16.933311"
       x="1608.6666"
       y="2523.0667"
       rx="16.933146"
       ry="8.4666557" />
    <rect
       style="fill:#999999;fill-opacity:1;stroke:none;stroke-width:4.23333;stroke-linecap:round;stroke-linejoin:round;stroke-dashoffset:49.5999;paint-order:markers fill stroke;stop-color:#000000"
       id="rect1435-5"
       width="203.1998"
       height="16.933311"
       x="-592.6665"
       y="2421.4666"
       rx="16.933146"
       ry="8.4666557"
       transform="scale(-1,1)" />
    <rect
       style="fill:#999999;fill-opacity:1;stroke:none;stroke-width:4.23333;stroke-linecap:round;stroke-linejoin:round;stroke-dashoffset:49.5999;paint-order:markers fill stroke;stop-color:#000000"
       id="rect1435-6-3"
       width="203.1998"
       height="16.933311"
       x="-575.73315"
       y="2472.2666"
       rx="16.933146"
       ry="8.4666557"
       transform="scale(-1,1)" />
    <rect
       style="fill:#999999;fill-opacity:1;stroke:none;stroke-width:4.23333;stroke-linecap:round;stroke-linejoin:round;stroke-dashoffset:49.5999;paint-order:markers fill stroke;stop-color:#000000"
       id="rect1435-7-5"
       width="203.1998"
       height="16.933311"
       x="-558.7998"
       y="2523.0667"
       rx="16.933146"
       ry="8.4666557"
       transform="scale(-1,1)" />
    <rect
       style="fill:#333333;fill-opacity:1;stroke:#000000;stroke-width:4.23333;stroke-linecap:round;stroke-linejoin:round;stroke-dashoffset:49.5999;paint-order:markers fill stroke;stop-color:#000000"
       id="rect2768"
       width="84.666664"
       height="84.666664"
       x="897.46661"
       y="3505.1997"
       rx="16.933331"
       ry="16.933516" />
    <rect
       style="fill:#333333;fill-opacity:1;stroke:#000000;stroke-width:4.23333;stroke-linecap:round;stroke-linejoin:round;stroke-dashoffset:49.5999;paint-order:markers fill stroke;stop-color:#000000"
       id="rect2768-6"
       width="46.566711"
       height="67.7332"
       x="1020.2333"
       y="3505.2"
       rx="16.933331"
       ry="16.933516" />
    <rect
       style="fill:#333333;fill-opacity:1;stroke:#000000;stroke-width:4.23333;stroke-linecap:round;stroke-linejoin:round;stroke-dashoffset:49.5999;paint-order:markers fill stroke;stop-color:#000000"
       id="rect2768-6-2"
       width="46.566711"
       height="67.7332"
       x="1083.7333"
       y="3505.2"
       rx="16.933331"
       ry="16.933516" />
    <rect
       style="fill:#333333;fill-opacity:1;stroke:#000000;stroke-width:4.23333;stroke-linecap:round;stroke-linejoin:round;stroke-dashoffset:49.5999;paint-order:markers fill stroke;stop-color:#000000"
       id="rect3116"
       width="16.933332"
       height="203.2"
       x="948.2666"
       y="2997.2"
       rx="16.933332"
       ry="16.933517" />
    <rect
       style="fill:#333333;fill-opacity:1;stroke:#000000;stroke-width:4.23333;stroke-linecap:round;stroke-linejoin:round;stroke-dashoffset:49.5999;paint-order:markers fill stroke;stop-color:#000000"
       id="rect3114"
       width="80.433334"
       height="80.433258"
       x="916.5166"
       y="3181.3499"
       rx="40.216667"
       ry="40.216629" />
    <rect
       style="fill:#333333;fill-opacity:1;stroke:#000000;stroke-width:4.23333;stroke-linecap:round;stroke-linejoin:round;stroke-dashoffset:49.5999;paint-order:markers fill stroke;stop-color:#000000"
       id="rect3118"
       width="237.06665"
       height="8.4669542"
       x="1066.7999"
       y="3047.9998"
       rx="4.233285"
       ry="16.933332" />
    <rect
       style="fill:#333333;fill-opacity:1;stroke:#000000;stroke-width:4.23333;stroke-linecap:round;stroke-linejoin:round;stroke-dashoffset:49.5999;paint-order:markers fill stroke;stop-color:#000000"
       id="rect3118-9"
       width="237.06665"
       height="8.4669542"
       x="1066.7999"
       y="3064.9331"
       rx="4.233285"
       ry="16.933332" />
    <rect
       style="fill:#333333;fill-opacity:1;stroke:#000000;stroke-width:4.23333;stroke-linecap:round;stroke-linejoin:round;stroke-dashoffset:49.5999;paint-order:markers fill stroke;stop-color:#000000"
       id="rect3118-1"
       width="237.06665"
       height="8.4669542"
       x="1066.7999"
       y="3081.8665"
       rx="4.233285"
       ry="16.933332" />
    <rect
       style="fill:#333333;fill-opacity:1;stroke:#000000;stroke-width:4.23333;stroke-linecap:round;stroke-linejoin:round;stroke-dashoffset:49.5999;paint-order:markers fill stroke;stop-color:#000000"
       id="rect3118-2"
       width="237.06665"
       height="8.4669542"
       x="1066.7999"
       y="3031.0664"
       rx="4.233285"
       ry="16.933332" />
    <rect
       style="fill:#333333;fill-opacity:1;stroke:#000000;stroke-width:4.23333;stroke-linecap:round;stroke-linejoin:round;stroke-dashoffset:49.5999;paint-order:markers fill stroke;stop-color:#000000"
       id="rect3118-7"
       width="237.06665"
       height="8.4669542"
       x="1066.7999"
       y="3014.1331"
       rx="4.233285"
       ry="16.933332" />
    <rect
       style="fill:#333333;fill-opacity:1;stroke:#000000;stroke-width:4.23333;stroke-linecap:round;stroke-linejoin:round;stroke-dashoffset:49.5999;paint-order:markers fill stroke;stop-color:#000000"
       id="rect3120"
       width="50.799984"
       height="42.333206"
       x="1143"
       y="3158.0667"
       rx="16.933332"
       ry="16.933332" />
    <rect
       style="fill:#333333;fill-opacity:1;stroke:#000000;stroke-width:4.23333;stroke-linecap:round;stroke-linejoin:round;stroke-dashoffset:49.5999;paint-order:markers fill stroke;stop-color:#000000"
       id="rect3120-0"
       width="50.799984"
       height="42.333206"
       x="1206.5"
       y="3158.0667"
       rx="16.933332"
       ry="16.933332" />
    <rect
       style="fill:#333333;fill-opacity:1;stroke:#000000;stroke-width:4.23333;stroke-linecap:round;stroke-linejoin:round;stroke-dashoffset:49.5999;paint-order:markers fill stroke;stop-color:#000000"
       id="rect3120-9"
       width="50.799984"
       height="42.333206"
       x="1270"
       y="3158.0667"
       rx="16.933332"
       ry="16.933332" />
    <rect
       style="fill:#999999;fill-opacity:1;stroke:none;stroke-width:4.23333;stroke-linecap:round;stroke-linejoin:round;stroke-dashoffset:49.5999;paint-order:markers fill stroke;stop-color:#000000"
       id="rect3554"
       width="50.799999"
       height="16.933332"
       x="186.26666"
       y="3183.4666"
       rx="16.93334"
       ry="16.933332" />
    <rect
       style="fill:#999999;fill-opacity:1;stroke:none;stroke-width:4.23333;stroke-linecap:round;stroke-linejoin:round;stroke-dashoffset:49.5999;paint-order:markers fill stroke;stop-color:#000000"
       id="rect3554-0"
       width="50.799999"
       height="16.933332"
       x="177.79999"
       y="3217.3333"
       rx="16.93334"
       ry="16.933332" />
    <rect
       style="fill:#999999;fill-opacity:1;stroke:none;stroke-width:4.23333;stroke-linecap:round;stroke-linejoin:round;stroke-dashoffset:49.5999;paint-order:markers fill stroke;stop-color:#000000"
       id="rect3554-62"
       width="50.799999"
       height="16.933332"
       x="169.33333"
       y="3251.2"
       rx="16.93334"
       ry="16.933332" />
    <rect
       style="fill:#999999;fill-opacity:1;stroke:none;stroke-width:4.23333;stroke-linecap:round;stroke-linejoin:round;stroke-dashoffset:49.5999;paint-order:markers fill stroke;stop-color:#000000"
       id="rect3554-3"
       width="50.799999"
       height="16.933332"
       x="194.73332"
       y="3149.5999"
       rx="16.93334"
       ry="16.933332" />
    <rect
       style="fill:#999999;fill-opacity:1;stroke:none;stroke-width:4.23333;stroke-linecap:round;stroke-linejoin:round;stroke-dashoffset:49.5999;paint-order:markers fill stroke;stop-color:#000000"
       id="rect3554-6"
       width="50.799999"
       height="16.933332"
       x="203.2"
       y="3115.7332"
       rx="16.93334"
       ry="16.933332" />
    <rect
       style="fill:#999999;fill-opacity:1;stroke:none;stroke-width:4.23333;stroke-linecap:round;stroke-linejoin:round;stroke-dashoffset:49.5999;paint-order:markers fill stroke;stop-color:#000000"
       id="rect3554-61"
       width="71.966652"
       height="16.933281"
       x="-1926.1666"
       y="3005.6665"
       rx="16.93334"
       ry="8.0959082"
       transform="scale(-1,1)" />
    <rect
       style="fill:#999999;fill-opacity:1;stroke:none;stroke-width:4.23333;stroke-linecap:round;stroke-linejoin:round;stroke-dashoffset:49.5999;paint-order:markers fill stroke;stop-color:#000000"
       id="rect3554-3-9"
       width="71.966782"
       height="16.933249"
       x="-1917.7"
       y="2971.7998"
       rx="16.93334"
       ry="8.4666243"
       transform="scale(-1,1)" />
    <rect
       style="fill:#999999;fill-opacity:1;stroke:none;stroke-width:4.23333;stroke-linecap:round;stroke-linejoin:round;stroke-dashoffset:49.5999;paint-order:markers fill stroke;stop-color:#000000"
       id="rect3554-6-2"
       width="71.966675"
       height="16.933214"
       x="-1909.2333"
       y="2937.9333"
       rx="16.93334"
       ry="7.9171977"
       transform="scale(-1,1)" />
    <path
       style="fill:#ffcc00;fill-opacity:1;stroke:#ffcc00;stroke-width:4.23333;stroke-linecap:round;stroke-linejoin:round;stroke-dashoffset:49.5999;paint-order:markers fill stroke;stop-color:#000000"
       d="m 1635.9528,3825.0517 91.2471,52.6815 -17.2845,-49.0849 z"
       id="path4580" />
    <path
       style="fill:#ffcc00;fill-opacity:1;stroke:#ffcc00;stroke-width:4.23333;stroke-linecap:round;stroke-linejoin:round;stroke-dashoffset:49.5999;paint-order:markers fill stroke;stop-color:#000000"
       d="m 1700.6264,3818.3971 -91.2471,-52.6815 17.2844,49.0848 z"
       id="path4580-0" />
    <path
       style="fill:#ffcc00;fill-opacity:1;stroke:#ffcc00;stroke-width:4.23333;stroke-linecap:round;stroke-linejoin:round;stroke-dashoffset:49.5999;paint-order:markers fill stroke;stop-color:#000000"
       d="m 531.51375,3825.0517 -91.2471,52.6815 17.2845,-49.0849 z"
       id="path4580-2" />
    <path
       style="fill:#ffcc00;fill-opacity:1;stroke:#ffcc00;stroke-width:4.23333;stroke-linecap:round;stroke-linejoin:round;stroke-dashoffset:49.5999;paint-order:markers fill stroke;stop-color:#000000"
       d="m 466.84015,3818.3971 91.2471,-52.6815 -17.2844,49.0848 z"
       id="path4580-0-3" />
    <path
       style="fill:#ffcc00;fill-opacity:1;stroke:#ffcc00;stroke-width:4.23333;stroke-linecap:round;stroke-linejoin:round;stroke-dashoffset:49.5999;paint-order:markers fill stroke;stop-color:#000000"
       d="m 1371.5999,2370.6666 h 33.8667 l 101.6,406.4 H 1473.2 Z"
       id="path5152"
       sodipodi:nodetypes="ccccc" />
    <rect
       style="fill:#ff0000;fill-opacity:1;stroke:none;stroke-width:4.23333;stroke-linecap:round;stroke-linejoin:round;stroke-dashoffset:49.5999;paint-order:markers fill stroke;stop-color:#000000"
       id="rect5616-97"
       width="67.73333"
       height="16.933332"
       x="1371.6"
       y="2396.0667"
       rx="3.7665624e-05"
       ry="3.7665624e-05" />
    <rect
       style="fill:#ff0000;fill-opacity:1;stroke:none;stroke-width:4.23333;stroke-linecap:round;stroke-linejoin:round;stroke-dashoffset:49.5999;paint-order:markers fill stroke;stop-color:#000000"
       id="rect5616-3"
       width="67.73333"
       height="16.933332"
       x="1371.6"
       y="2429.9333"
       rx="3.7665624e-05"
       ry="3.7665624e-05" />
    <rect
       style="fill:#ff0000;fill-opacity:1;stroke:none;stroke-width:4.23333;stroke-linecap:round;stroke-linejoin:round;stroke-dashoffset:49.5999;paint-order:markers fill stroke;stop-color:#000000"
       id="rect5616-6"
       width="67.73333"
       height="16.933332"
       x="1405.4667"
       y="2556.9333"
       rx="3.7665624e-05"
       ry="3.7665624e-05" />
    <rect
       style="fill:#ff0000;fill-opacity:1;stroke:none;stroke-width:4.23333;stroke-linecap:round;stroke-linejoin:round;stroke-dashoffset:49.5999;paint-order:markers fill stroke;stop-color:#000000"
       id="rect5616-1"
       width="67.73333"
       height="16.933332"
       x="1422.4"
       y="2616.2"
       rx="3.7665624e-05"
       ry="3.7665624e-05" />
    <rect
       style="fill:#ff0000;fill-opacity:1;stroke:none;stroke-width:4.23333;stroke-linecap:round;stroke-linejoin:round;stroke-dashoffset:49.5999;paint-order:markers fill stroke;stop-color:#000000"
       id="rect5616-29"
       width="67.73333"
       height="16.933332"
       x="1456.2666"
       y="2743.2"
       rx="3.7665624e-05"
       ry="3.7665624e-05" />
    <path
       style="fill:#ffcc00;fill-opacity:1;stroke:#ffcc00;stroke-width:4.23333;stroke-linecap:round;stroke-linejoin:round;stroke-dashoffset:49.5999;paint-order:markers fill stroke;stop-color:#000000"
       d="m 795.86666,2370.6666 h -33.8667 l -101.6,406.4 h 33.8666 z"
       id="path5152-7"
       sodipodi:nodetypes="ccccc" />
    <rect
       style="fill:#ff0000;fill-opacity:1;stroke:none;stroke-width:4.23333;stroke-linecap:round;stroke-linejoin:round;stroke-dashoffset:49.5999;paint-order:markers fill stroke;stop-color:#000000"
       id="rect5616"
       width="67.73333"
       height="16.933332"
       x="728.1333"
       y="2421.4666"
       rx="0"
       ry="3.7665624e-05" />
    <rect
       style="fill:#ff0000;fill-opacity:1;stroke:none;stroke-width:4.23333;stroke-linecap:round;stroke-linejoin:round;stroke-dashoffset:49.5999;paint-order:markers fill stroke;stop-color:#000000"
       id="rect5616-5"
       width="67.73333"
       height="16.933332"
       x="711.19995"
       y="2472.2666"
       rx="3.7665624e-05"
       ry="3.7665624e-05" />
    <rect
       style="fill:#ff0000;fill-opacity:1;stroke:none;stroke-width:4.23333;stroke-linecap:round;stroke-linejoin:round;stroke-dashoffset:49.5999;paint-order:markers fill stroke;stop-color:#000000"
       id="rect5616-9"
       width="67.73333"
       height="16.933332"
       x="677.33331"
       y="2590.7998"
       rx="3.7665624e-05"
       ry="3.7665624e-05" />
    <rect
       style="fill:#ff0000;fill-opacity:1;stroke:none;stroke-width:4.23333;stroke-linecap:round;stroke-linejoin:round;stroke-dashoffset:49.5999;paint-order:markers fill stroke;stop-color:#000000"
       id="rect5616-2"
       width="67.73333"
       height="16.933332"
       x="677.33331"
       y="2616.2"
       rx="3.7665624e-05"
       ry="3.7665624e-05" />
  </g>
</svg>
